G04 #@! TF.GenerationSoftware,KiCad,Pcbnew,5.1.4*
G04 #@! TF.CreationDate,2019-09-01T18:38:05+02:00*
G04 #@! TF.ProjectId,blueled,626c7565-6c65-4642-9e6b-696361645f70,rev?*
G04 #@! TF.SameCoordinates,Original*
G04 #@! TF.FileFunction,Copper,L2,Bot*
G04 #@! TF.FilePolarity,Positive*
%FSLAX46Y46*%
G04 Gerber Fmt 4.6, Leading zero omitted, Abs format (unit mm)*
G04 Created by KiCad (PCBNEW 5.1.4) date 2019-09-01 18:38:05*
%MOMM*%
%LPD*%
G04 APERTURE LIST*
%ADD10C,1.524000*%
%ADD11C,0.100000*%
%ADD12R,3.600000X3.600000*%
%ADD13C,3.600000*%
%ADD14C,3.000000*%
%ADD15R,3.000000X3.000000*%
%ADD16C,1.700000*%
%ADD17O,1.700000X1.700000*%
%ADD18R,1.700000X1.700000*%
%ADD19C,2.000000*%
%ADD20R,1.524000X1.100000*%
%ADD21R,1.100000X1.524000*%
%ADD22C,0.800000*%
%ADD23C,0.250000*%
%ADD24C,0.350000*%
%ADD25C,0.254000*%
G04 APERTURE END LIST*
D10*
X146780000Y-146558000D03*
X144780000Y-146558000D03*
X142780000Y-146558000D03*
D11*
G36*
X143542000Y-147320000D02*
G01*
X142018000Y-147320000D01*
X142018000Y-145796000D01*
X143542000Y-145796000D01*
X143542000Y-147320000D01*
X143542000Y-147320000D01*
G37*
D10*
X146780000Y-151558000D03*
X144780000Y-151558000D03*
X142780000Y-151558000D03*
D12*
X153670000Y-145605500D03*
D13*
X153670000Y-151605500D03*
X158370000Y-148605500D03*
D14*
X157988000Y-104140000D03*
X152908000Y-104140000D03*
D15*
X147828000Y-104140000D03*
D16*
X149225000Y-118618000D03*
D17*
X163449000Y-128905000D03*
X163449000Y-126365000D03*
X163449000Y-123825000D03*
X163449000Y-121285000D03*
X163449000Y-118745000D03*
D18*
X163449000Y-116205000D03*
D19*
X142367000Y-101600000D03*
X142367000Y-155765500D03*
D20*
X146177000Y-128270000D03*
X146177000Y-126770000D03*
X146177000Y-123770000D03*
X146177000Y-125270000D03*
X146177000Y-120770000D03*
X146177000Y-122270000D03*
X146177000Y-117770000D03*
X146177000Y-119270000D03*
X146177000Y-114770000D03*
X146177000Y-116270000D03*
X146177000Y-111770000D03*
X146177000Y-113270000D03*
X146177000Y-110270000D03*
X159639000Y-111770000D03*
X159639000Y-113270000D03*
X159639000Y-110270000D03*
X159639000Y-120770000D03*
X159639000Y-128270000D03*
X159639000Y-125270000D03*
X159639000Y-126770000D03*
X159639000Y-117770000D03*
X159639000Y-119270000D03*
X159639000Y-123770000D03*
X159639000Y-116270000D03*
X159639000Y-114770000D03*
X159639000Y-122270000D03*
D21*
X147658000Y-108204000D03*
X149158000Y-108204000D03*
X150658000Y-108204000D03*
X152158000Y-108204000D03*
X153658000Y-108204000D03*
X155158000Y-108204000D03*
X156658000Y-108204000D03*
X158158000Y-108204000D03*
D22*
X156464000Y-116205000D03*
X151130000Y-123190000D03*
X144653000Y-113919000D03*
X155956000Y-120269000D03*
X150876000Y-115443000D03*
X153352500Y-117030500D03*
X158176013Y-109982000D03*
X152781000Y-111379000D03*
X151714200Y-111379000D03*
X150622000Y-112268000D03*
X152273000Y-114427000D03*
X150622000Y-106593010D03*
X144399000Y-118364000D03*
X153924000Y-112903000D03*
X153289000Y-106616500D03*
X160782000Y-106616500D03*
X144272000Y-112141000D03*
X161036000Y-117538500D03*
X162164304Y-120231088D03*
X157353000Y-126365000D03*
X157353000Y-118491000D03*
X149860000Y-109982000D03*
X157226000Y-109982000D03*
X161036000Y-109982000D03*
X155210736Y-116524244D03*
X156346896Y-115021723D03*
X144780000Y-145034000D03*
X149860000Y-142240000D03*
D23*
X145923000Y-111760000D02*
X145986500Y-111760000D01*
D24*
X156464000Y-116259879D02*
X156464000Y-116205000D01*
X156464000Y-117856000D02*
X156464000Y-116259879D01*
D23*
X145816498Y-111823500D02*
X146113500Y-111823500D01*
X145965000Y-111770000D02*
X146177000Y-111770000D01*
X144653000Y-113082000D02*
X145965000Y-111770000D01*
X144653000Y-113919000D02*
X144653000Y-113082000D01*
X155175001Y-119869001D02*
X154813000Y-119507000D01*
X155556001Y-119869001D02*
X155175001Y-119869001D01*
X155956000Y-120269000D02*
X155556001Y-119869001D01*
D24*
X151130000Y-123190000D02*
X154813000Y-119507000D01*
X154813000Y-119507000D02*
X156464000Y-117856000D01*
D23*
X151130000Y-123190000D02*
X151130000Y-115443000D01*
X151130000Y-115443000D02*
X150876000Y-115443000D01*
X153352500Y-116903500D02*
X153352500Y-117030500D01*
X153352500Y-117030500D02*
X153352500Y-114854502D01*
X157901010Y-109982000D02*
X158176013Y-109982000D01*
X153352500Y-114854502D02*
X157901010Y-110305992D01*
X157901010Y-110257003D02*
X158176013Y-109982000D01*
X157901010Y-110305992D02*
X157901010Y-110257003D01*
X152781000Y-112395000D02*
X152781000Y-111379000D01*
X148082000Y-127377000D02*
X148082000Y-117094000D01*
X148082000Y-117094000D02*
X152781000Y-112395000D01*
X146177000Y-128270000D02*
X147189000Y-128270000D01*
X147189000Y-128270000D02*
X148082000Y-127377000D01*
X151714200Y-112445800D02*
X151714200Y-111379000D01*
X147574000Y-116586000D02*
X151714200Y-112445800D01*
X147574000Y-126385000D02*
X147574000Y-116586000D01*
X146177000Y-126770000D02*
X147189000Y-126770000D01*
X147189000Y-126770000D02*
X147574000Y-126385000D01*
X149620000Y-113270000D02*
X150622000Y-112268000D01*
X146177000Y-113270000D02*
X149620000Y-113270000D01*
X150056315Y-106593010D02*
X150622000Y-106593010D01*
X149056990Y-106593010D02*
X150056315Y-106593010D01*
X147658000Y-107992000D02*
X149056990Y-106593010D01*
X147658000Y-108204000D02*
X147658000Y-107992000D01*
D24*
X160782000Y-106616500D02*
X153289000Y-106616500D01*
D23*
X145139999Y-108914999D02*
X148139997Y-105915001D01*
X150243999Y-105915001D02*
X150246998Y-105918000D01*
X148139997Y-105915001D02*
X150243999Y-105915001D01*
X145139999Y-111654001D02*
X145139999Y-108914999D01*
X152590500Y-105918000D02*
X153289000Y-106616500D01*
X150246998Y-105918000D02*
X152590500Y-105918000D01*
X144272000Y-112141000D02*
X145139999Y-111654001D01*
X162164304Y-120231088D02*
X162141088Y-120231088D01*
X161036000Y-119126000D02*
X161036000Y-117538500D01*
X162141088Y-120231088D02*
X161036000Y-119126000D01*
X157353000Y-126365000D02*
X157353000Y-118491000D01*
D24*
X160022002Y-113284000D02*
X159766000Y-113284000D01*
D23*
X149860000Y-109982000D02*
X157226000Y-109982000D01*
X159639000Y-113270000D02*
X160034000Y-113270000D01*
X161036000Y-112180002D02*
X160186002Y-113030000D01*
X161036000Y-109982000D02*
X161036000Y-112180002D01*
X160186002Y-113030000D02*
X159829500Y-113030000D01*
X158639998Y-111760000D02*
X155210736Y-115189262D01*
X159258000Y-111760000D02*
X158639998Y-111760000D01*
X155210736Y-115958559D02*
X155210736Y-116524244D01*
X155210736Y-115189262D02*
X155210736Y-115958559D01*
X159258000Y-128397000D02*
X158242000Y-127381000D01*
X158242000Y-116916827D02*
X156746895Y-115421722D01*
X158242000Y-127381000D02*
X158242000Y-116916827D01*
X156746895Y-115421722D02*
X156346896Y-115021723D01*
X144780000Y-145034000D02*
X144780000Y-143637000D01*
X146177000Y-142240000D02*
X149860000Y-142240000D01*
X144780000Y-143637000D02*
X146177000Y-142240000D01*
D25*
G36*
X165968001Y-159110000D02*
G01*
X140737000Y-159110000D01*
X140737000Y-155629877D01*
X140990000Y-155629877D01*
X140990000Y-155901123D01*
X141042917Y-156167156D01*
X141146718Y-156417754D01*
X141297414Y-156643287D01*
X141489213Y-156835086D01*
X141714746Y-156985782D01*
X141965344Y-157089583D01*
X142231377Y-157142500D01*
X142502623Y-157142500D01*
X142768656Y-157089583D01*
X143019254Y-156985782D01*
X143244787Y-156835086D01*
X143436586Y-156643287D01*
X143587282Y-156417754D01*
X143691083Y-156167156D01*
X143744000Y-155901123D01*
X143744000Y-155629877D01*
X143691083Y-155363844D01*
X143587282Y-155113246D01*
X143436586Y-154887713D01*
X143244787Y-154695914D01*
X143019254Y-154545218D01*
X142768656Y-154441417D01*
X142502623Y-154388500D01*
X142231377Y-154388500D01*
X141965344Y-154441417D01*
X141714746Y-154545218D01*
X141489213Y-154695914D01*
X141297414Y-154887713D01*
X141146718Y-155113246D01*
X141042917Y-155363844D01*
X140990000Y-155629877D01*
X140737000Y-155629877D01*
X140737000Y-153310692D01*
X152144414Y-153310692D01*
X152336502Y-153656969D01*
X152762346Y-153877703D01*
X153223071Y-154011118D01*
X153700971Y-154052085D01*
X154177681Y-153999032D01*
X154634881Y-153853998D01*
X155003498Y-153656969D01*
X155195586Y-153310692D01*
X153670000Y-151785105D01*
X152144414Y-153310692D01*
X140737000Y-153310692D01*
X140737000Y-151445818D01*
X141641000Y-151445818D01*
X141641000Y-151670182D01*
X141684771Y-151890234D01*
X141770631Y-152097519D01*
X141895281Y-152284070D01*
X142053930Y-152442719D01*
X142240481Y-152567369D01*
X142447766Y-152653229D01*
X142667818Y-152697000D01*
X142892182Y-152697000D01*
X143112234Y-152653229D01*
X143319519Y-152567369D01*
X143506070Y-152442719D01*
X143664719Y-152284070D01*
X143780000Y-152111541D01*
X143895281Y-152284070D01*
X144053930Y-152442719D01*
X144240481Y-152567369D01*
X144447766Y-152653229D01*
X144667818Y-152697000D01*
X144892182Y-152697000D01*
X145112234Y-152653229D01*
X145319519Y-152567369D01*
X145506070Y-152442719D01*
X145664719Y-152284070D01*
X145780000Y-152111541D01*
X145895281Y-152284070D01*
X146053930Y-152442719D01*
X146240481Y-152567369D01*
X146447766Y-152653229D01*
X146667818Y-152697000D01*
X146892182Y-152697000D01*
X147112234Y-152653229D01*
X147319519Y-152567369D01*
X147506070Y-152442719D01*
X147664719Y-152284070D01*
X147789369Y-152097519D01*
X147875229Y-151890234D01*
X147919000Y-151670182D01*
X147919000Y-151636471D01*
X151223415Y-151636471D01*
X151276468Y-152113181D01*
X151421502Y-152570381D01*
X151618531Y-152938998D01*
X151964808Y-153131086D01*
X153490395Y-151605500D01*
X153849605Y-151605500D01*
X155375192Y-153131086D01*
X155721469Y-152938998D01*
X155942203Y-152513154D01*
X156075618Y-152052429D01*
X156116585Y-151574529D01*
X156063532Y-151097819D01*
X155918498Y-150640619D01*
X155721469Y-150272002D01*
X155375192Y-150079914D01*
X153849605Y-151605500D01*
X153490395Y-151605500D01*
X151964808Y-150079914D01*
X151618531Y-150272002D01*
X151397797Y-150697846D01*
X151264382Y-151158571D01*
X151223415Y-151636471D01*
X147919000Y-151636471D01*
X147919000Y-151445818D01*
X147875229Y-151225766D01*
X147789369Y-151018481D01*
X147664719Y-150831930D01*
X147506070Y-150673281D01*
X147319519Y-150548631D01*
X147112234Y-150462771D01*
X146892182Y-150419000D01*
X146667818Y-150419000D01*
X146447766Y-150462771D01*
X146240481Y-150548631D01*
X146053930Y-150673281D01*
X145895281Y-150831930D01*
X145780000Y-151004459D01*
X145664719Y-150831930D01*
X145506070Y-150673281D01*
X145319519Y-150548631D01*
X145112234Y-150462771D01*
X144892182Y-150419000D01*
X144667818Y-150419000D01*
X144447766Y-150462771D01*
X144240481Y-150548631D01*
X144053930Y-150673281D01*
X143895281Y-150831930D01*
X143780000Y-151004459D01*
X143664719Y-150831930D01*
X143506070Y-150673281D01*
X143319519Y-150548631D01*
X143112234Y-150462771D01*
X142892182Y-150419000D01*
X142667818Y-150419000D01*
X142447766Y-150462771D01*
X142240481Y-150548631D01*
X142053930Y-150673281D01*
X141895281Y-150831930D01*
X141770631Y-151018481D01*
X141684771Y-151225766D01*
X141641000Y-151445818D01*
X140737000Y-151445818D01*
X140737000Y-149900308D01*
X152144414Y-149900308D01*
X153670000Y-151425895D01*
X155195586Y-149900308D01*
X155003498Y-149554031D01*
X154577654Y-149333297D01*
X154116929Y-149199882D01*
X153639029Y-149158915D01*
X153162319Y-149211968D01*
X152705119Y-149357002D01*
X152336502Y-149554031D01*
X152144414Y-149900308D01*
X140737000Y-149900308D01*
X140737000Y-148391084D01*
X156193000Y-148391084D01*
X156193000Y-148819916D01*
X156276660Y-149240508D01*
X156440767Y-149636696D01*
X156679013Y-149993257D01*
X156982243Y-150296487D01*
X157338804Y-150534733D01*
X157734992Y-150698840D01*
X158155584Y-150782500D01*
X158584416Y-150782500D01*
X159005008Y-150698840D01*
X159401196Y-150534733D01*
X159757757Y-150296487D01*
X160060987Y-149993257D01*
X160299233Y-149636696D01*
X160463340Y-149240508D01*
X160547000Y-148819916D01*
X160547000Y-148391084D01*
X160463340Y-147970492D01*
X160299233Y-147574304D01*
X160060987Y-147217743D01*
X159757757Y-146914513D01*
X159401196Y-146676267D01*
X159005008Y-146512160D01*
X158584416Y-146428500D01*
X158155584Y-146428500D01*
X157734992Y-146512160D01*
X157338804Y-146676267D01*
X156982243Y-146914513D01*
X156679013Y-147217743D01*
X156440767Y-147574304D01*
X156276660Y-147970492D01*
X156193000Y-148391084D01*
X140737000Y-148391084D01*
X140737000Y-145796000D01*
X141639176Y-145796000D01*
X141639176Y-147320000D01*
X141646455Y-147393905D01*
X141668012Y-147464970D01*
X141703019Y-147530463D01*
X141750131Y-147587869D01*
X141807537Y-147634981D01*
X141873030Y-147669988D01*
X141944095Y-147691545D01*
X142018000Y-147698824D01*
X143542000Y-147698824D01*
X143615905Y-147691545D01*
X143686970Y-147669988D01*
X143752463Y-147634981D01*
X143809869Y-147587869D01*
X143856981Y-147530463D01*
X143891988Y-147464970D01*
X143913545Y-147393905D01*
X143920824Y-147320000D01*
X143920824Y-147309613D01*
X144053930Y-147442719D01*
X144240481Y-147567369D01*
X144447766Y-147653229D01*
X144667818Y-147697000D01*
X144892182Y-147697000D01*
X145112234Y-147653229D01*
X145319519Y-147567369D01*
X145385075Y-147523565D01*
X145994040Y-147523565D01*
X146061020Y-147763656D01*
X146310048Y-147880756D01*
X146577135Y-147947023D01*
X146852017Y-147959910D01*
X147124133Y-147918922D01*
X147383023Y-147825636D01*
X147498980Y-147763656D01*
X147565960Y-147523565D01*
X146780000Y-146737605D01*
X145994040Y-147523565D01*
X145385075Y-147523565D01*
X145506070Y-147442719D01*
X145650549Y-147298240D01*
X145814435Y-147343960D01*
X146600395Y-146558000D01*
X146959605Y-146558000D01*
X147745565Y-147343960D01*
X147985656Y-147276980D01*
X148102756Y-147027952D01*
X148169023Y-146760865D01*
X148181910Y-146485983D01*
X148140922Y-146213867D01*
X148047636Y-145954977D01*
X147985656Y-145839020D01*
X147745565Y-145772040D01*
X146959605Y-146558000D01*
X146600395Y-146558000D01*
X145814435Y-145772040D01*
X145650549Y-145817760D01*
X145506070Y-145673281D01*
X145385077Y-145592435D01*
X145994040Y-145592435D01*
X146780000Y-146378395D01*
X147565960Y-145592435D01*
X147498980Y-145352344D01*
X147249952Y-145235244D01*
X146982865Y-145168977D01*
X146707983Y-145156090D01*
X146435867Y-145197078D01*
X146176977Y-145290364D01*
X146061020Y-145352344D01*
X145994040Y-145592435D01*
X145385077Y-145592435D01*
X145346312Y-145566533D01*
X145383536Y-145529309D01*
X145468569Y-145402048D01*
X145527141Y-145260643D01*
X145557000Y-145110528D01*
X145557000Y-144957472D01*
X145527141Y-144807357D01*
X145468569Y-144665952D01*
X145383536Y-144538691D01*
X145282000Y-144437155D01*
X145282000Y-143844934D01*
X145321434Y-143805500D01*
X151491176Y-143805500D01*
X151491176Y-147405500D01*
X151498455Y-147479405D01*
X151520012Y-147550470D01*
X151555019Y-147615963D01*
X151602131Y-147673369D01*
X151659537Y-147720481D01*
X151725030Y-147755488D01*
X151796095Y-147777045D01*
X151870000Y-147784324D01*
X155470000Y-147784324D01*
X155543905Y-147777045D01*
X155614970Y-147755488D01*
X155680463Y-147720481D01*
X155737869Y-147673369D01*
X155784981Y-147615963D01*
X155819988Y-147550470D01*
X155841545Y-147479405D01*
X155848824Y-147405500D01*
X155848824Y-143805500D01*
X155841545Y-143731595D01*
X155819988Y-143660530D01*
X155784981Y-143595037D01*
X155737869Y-143537631D01*
X155680463Y-143490519D01*
X155614970Y-143455512D01*
X155543905Y-143433955D01*
X155470000Y-143426676D01*
X151870000Y-143426676D01*
X151796095Y-143433955D01*
X151725030Y-143455512D01*
X151659537Y-143490519D01*
X151602131Y-143537631D01*
X151555019Y-143595037D01*
X151520012Y-143660530D01*
X151498455Y-143731595D01*
X151491176Y-143805500D01*
X145321434Y-143805500D01*
X146384935Y-142742000D01*
X149263155Y-142742000D01*
X149364691Y-142843536D01*
X149491952Y-142928569D01*
X149633357Y-142987141D01*
X149783472Y-143017000D01*
X149936528Y-143017000D01*
X150086643Y-142987141D01*
X150228048Y-142928569D01*
X150355309Y-142843536D01*
X150463536Y-142735309D01*
X150548569Y-142608048D01*
X150607141Y-142466643D01*
X150637000Y-142316528D01*
X150637000Y-142163472D01*
X150607141Y-142013357D01*
X150548569Y-141871952D01*
X150463536Y-141744691D01*
X150355309Y-141636464D01*
X150228048Y-141551431D01*
X150086643Y-141492859D01*
X149936528Y-141463000D01*
X149783472Y-141463000D01*
X149633357Y-141492859D01*
X149491952Y-141551431D01*
X149364691Y-141636464D01*
X149263155Y-141738000D01*
X146201642Y-141738000D01*
X146176999Y-141735573D01*
X146152356Y-141738000D01*
X146152347Y-141738000D01*
X146078591Y-141745264D01*
X145983964Y-141773969D01*
X145896755Y-141820583D01*
X145820316Y-141883316D01*
X145804603Y-141902462D01*
X144442463Y-143264603D01*
X144423317Y-143280316D01*
X144407604Y-143299462D01*
X144407601Y-143299465D01*
X144360584Y-143356755D01*
X144313970Y-143443964D01*
X144285265Y-143538591D01*
X144275573Y-143637000D01*
X144278001Y-143661653D01*
X144278000Y-144437155D01*
X144176464Y-144538691D01*
X144091431Y-144665952D01*
X144032859Y-144807357D01*
X144003000Y-144957472D01*
X144003000Y-145110528D01*
X144032859Y-145260643D01*
X144091431Y-145402048D01*
X144176464Y-145529309D01*
X144213688Y-145566533D01*
X144053930Y-145673281D01*
X143920824Y-145806387D01*
X143920824Y-145796000D01*
X143913545Y-145722095D01*
X143891988Y-145651030D01*
X143856981Y-145585537D01*
X143809869Y-145528131D01*
X143752463Y-145481019D01*
X143686970Y-145446012D01*
X143615905Y-145424455D01*
X143542000Y-145417176D01*
X142018000Y-145417176D01*
X141944095Y-145424455D01*
X141873030Y-145446012D01*
X141807537Y-145481019D01*
X141750131Y-145528131D01*
X141703019Y-145585537D01*
X141668012Y-145651030D01*
X141646455Y-145722095D01*
X141639176Y-145796000D01*
X140737000Y-145796000D01*
X140737000Y-129387600D01*
X146431000Y-129387600D01*
X146431000Y-135382000D01*
X146433440Y-135406776D01*
X146440667Y-135430601D01*
X146452403Y-135452557D01*
X146468197Y-135471803D01*
X146487443Y-135487597D01*
X146509399Y-135499333D01*
X146533224Y-135506560D01*
X146557492Y-135508999D01*
X159257492Y-135559799D01*
X159282278Y-135557458D01*
X159306131Y-135550326D01*
X159328134Y-135538678D01*
X159347443Y-135522961D01*
X159363314Y-135503779D01*
X159375137Y-135481870D01*
X159382460Y-135458075D01*
X159385000Y-135432800D01*
X159385000Y-129387600D01*
X159382560Y-129362824D01*
X159375333Y-129338999D01*
X159363597Y-129317043D01*
X159347803Y-129297797D01*
X159328557Y-129282003D01*
X159306601Y-129270267D01*
X159282776Y-129263040D01*
X159271099Y-129261890D01*
X162007524Y-129261890D01*
X162052175Y-129409099D01*
X162177359Y-129671920D01*
X162351412Y-129905269D01*
X162567645Y-130100178D01*
X162817748Y-130249157D01*
X163092109Y-130346481D01*
X163322000Y-130225814D01*
X163322000Y-129032000D01*
X163576000Y-129032000D01*
X163576000Y-130225814D01*
X163805891Y-130346481D01*
X164080252Y-130249157D01*
X164330355Y-130100178D01*
X164546588Y-129905269D01*
X164720641Y-129671920D01*
X164845825Y-129409099D01*
X164890476Y-129261890D01*
X164769155Y-129032000D01*
X163576000Y-129032000D01*
X163322000Y-129032000D01*
X162128845Y-129032000D01*
X162007524Y-129261890D01*
X159271099Y-129261890D01*
X159258000Y-129260600D01*
X146558000Y-129260600D01*
X146533224Y-129263040D01*
X146509399Y-129270267D01*
X146487443Y-129282003D01*
X146468197Y-129297797D01*
X146452403Y-129317043D01*
X146440667Y-129338999D01*
X146433440Y-129362824D01*
X146431000Y-129387600D01*
X140737000Y-129387600D01*
X140737000Y-112064472D01*
X143495000Y-112064472D01*
X143495000Y-112217528D01*
X143524859Y-112367643D01*
X143583431Y-112509048D01*
X143668464Y-112636309D01*
X143776691Y-112744536D01*
X143903952Y-112829569D01*
X144045357Y-112888141D01*
X144179147Y-112914753D01*
X144158265Y-112983591D01*
X144148573Y-113082000D01*
X144151001Y-113106652D01*
X144151001Y-113322154D01*
X144049464Y-113423691D01*
X143964431Y-113550952D01*
X143905859Y-113692357D01*
X143876000Y-113842472D01*
X143876000Y-113995528D01*
X143905859Y-114145643D01*
X143964431Y-114287048D01*
X144049464Y-114414309D01*
X144157691Y-114522536D01*
X144284952Y-114607569D01*
X144426357Y-114666141D01*
X144576472Y-114696000D01*
X144729528Y-114696000D01*
X144879643Y-114666141D01*
X145021048Y-114607569D01*
X145036176Y-114597461D01*
X145036176Y-115320000D01*
X145043455Y-115393905D01*
X145065012Y-115464970D01*
X145094426Y-115520000D01*
X145065012Y-115575030D01*
X145043455Y-115646095D01*
X145036176Y-115720000D01*
X145036176Y-116820000D01*
X145043455Y-116893905D01*
X145065012Y-116964970D01*
X145094426Y-117020000D01*
X145065012Y-117075030D01*
X145043455Y-117146095D01*
X145036176Y-117220000D01*
X145036176Y-118320000D01*
X145043455Y-118393905D01*
X145065012Y-118464970D01*
X145094426Y-118520000D01*
X145065012Y-118575030D01*
X145043455Y-118646095D01*
X145036176Y-118720000D01*
X145036176Y-119820000D01*
X145043455Y-119893905D01*
X145065012Y-119964970D01*
X145094426Y-120020000D01*
X145065012Y-120075030D01*
X145043455Y-120146095D01*
X145036176Y-120220000D01*
X145036176Y-121320000D01*
X145043455Y-121393905D01*
X145065012Y-121464970D01*
X145094426Y-121520000D01*
X145065012Y-121575030D01*
X145043455Y-121646095D01*
X145036176Y-121720000D01*
X145036176Y-122820000D01*
X145043455Y-122893905D01*
X145065012Y-122964970D01*
X145094426Y-123020000D01*
X145065012Y-123075030D01*
X145043455Y-123146095D01*
X145036176Y-123220000D01*
X145036176Y-124320000D01*
X145043455Y-124393905D01*
X145065012Y-124464970D01*
X145094426Y-124520000D01*
X145065012Y-124575030D01*
X145043455Y-124646095D01*
X145036176Y-124720000D01*
X145036176Y-125820000D01*
X145043455Y-125893905D01*
X145065012Y-125964970D01*
X145094426Y-126020000D01*
X145065012Y-126075030D01*
X145043455Y-126146095D01*
X145036176Y-126220000D01*
X145036176Y-127320000D01*
X145043455Y-127393905D01*
X145065012Y-127464970D01*
X145094426Y-127520000D01*
X145065012Y-127575030D01*
X145043455Y-127646095D01*
X145036176Y-127720000D01*
X145036176Y-128820000D01*
X145043455Y-128893905D01*
X145065012Y-128964970D01*
X145100019Y-129030463D01*
X145147131Y-129087869D01*
X145204537Y-129134981D01*
X145270030Y-129169988D01*
X145341095Y-129191545D01*
X145415000Y-129198824D01*
X146939000Y-129198824D01*
X147012905Y-129191545D01*
X147083970Y-129169988D01*
X147149463Y-129134981D01*
X147206869Y-129087869D01*
X147253981Y-129030463D01*
X147288988Y-128964970D01*
X147310545Y-128893905D01*
X147317824Y-128820000D01*
X147317824Y-128755510D01*
X147382036Y-128736031D01*
X147469245Y-128689417D01*
X147545684Y-128626684D01*
X147561401Y-128607533D01*
X148419543Y-127749393D01*
X148438684Y-127733684D01*
X148454392Y-127714544D01*
X148454400Y-127714536D01*
X148501417Y-127657246D01*
X148538499Y-127587869D01*
X148548031Y-127570036D01*
X148576736Y-127475409D01*
X148584000Y-127401653D01*
X148584000Y-127401643D01*
X148586427Y-127377000D01*
X148584000Y-127352357D01*
X148584000Y-119665397D01*
X148643798Y-119705353D01*
X148867097Y-119797847D01*
X149104151Y-119845000D01*
X149345849Y-119845000D01*
X149582903Y-119797847D01*
X149806202Y-119705353D01*
X150007167Y-119571073D01*
X150178073Y-119400167D01*
X150312353Y-119199202D01*
X150404847Y-118975903D01*
X150452000Y-118738849D01*
X150452000Y-118497151D01*
X150404847Y-118260097D01*
X150312353Y-118036798D01*
X150178073Y-117835833D01*
X150007167Y-117664927D01*
X149806202Y-117530647D01*
X149582903Y-117438153D01*
X149345849Y-117391000D01*
X149104151Y-117391000D01*
X148867097Y-117438153D01*
X148643798Y-117530647D01*
X148584000Y-117570603D01*
X148584000Y-117301934D01*
X150154467Y-115731467D01*
X150187431Y-115811048D01*
X150272464Y-115938309D01*
X150380691Y-116046536D01*
X150507952Y-116131569D01*
X150628001Y-116181295D01*
X150628000Y-122593155D01*
X150526464Y-122694691D01*
X150441431Y-122821952D01*
X150382859Y-122963357D01*
X150353000Y-123113472D01*
X150353000Y-123266528D01*
X150382859Y-123416643D01*
X150441431Y-123558048D01*
X150526464Y-123685309D01*
X150634691Y-123793536D01*
X150761952Y-123878569D01*
X150903357Y-123937141D01*
X151053472Y-123967000D01*
X151206528Y-123967000D01*
X151356643Y-123937141D01*
X151498048Y-123878569D01*
X151625309Y-123793536D01*
X151733536Y-123685309D01*
X151818569Y-123558048D01*
X151877141Y-123416643D01*
X151907000Y-123266528D01*
X151907000Y-123193644D01*
X154849427Y-120251218D01*
X154894755Y-120288418D01*
X154930673Y-120307616D01*
X154981965Y-120335032D01*
X155076592Y-120363737D01*
X155150348Y-120371001D01*
X155150358Y-120371001D01*
X155175001Y-120373428D01*
X155184366Y-120372506D01*
X155208859Y-120495643D01*
X155267431Y-120637048D01*
X155352464Y-120764309D01*
X155460691Y-120872536D01*
X155587952Y-120957569D01*
X155729357Y-121016141D01*
X155879472Y-121046000D01*
X156032528Y-121046000D01*
X156182643Y-121016141D01*
X156324048Y-120957569D01*
X156451309Y-120872536D01*
X156559536Y-120764309D01*
X156644569Y-120637048D01*
X156703141Y-120495643D01*
X156733000Y-120345528D01*
X156733000Y-120192472D01*
X156703141Y-120042357D01*
X156644569Y-119900952D01*
X156559536Y-119773691D01*
X156451309Y-119665464D01*
X156324048Y-119580431D01*
X156182643Y-119521859D01*
X156032528Y-119492000D01*
X155887929Y-119492000D01*
X155836246Y-119449584D01*
X155749037Y-119402970D01*
X155709629Y-119391016D01*
X156576000Y-118524646D01*
X156576000Y-118567528D01*
X156605859Y-118717643D01*
X156664431Y-118859048D01*
X156749464Y-118986309D01*
X156851001Y-119087846D01*
X156851000Y-125768155D01*
X156749464Y-125869691D01*
X156664431Y-125996952D01*
X156605859Y-126138357D01*
X156576000Y-126288472D01*
X156576000Y-126441528D01*
X156605859Y-126591643D01*
X156664431Y-126733048D01*
X156749464Y-126860309D01*
X156857691Y-126968536D01*
X156984952Y-127053569D01*
X157126357Y-127112141D01*
X157276472Y-127142000D01*
X157429528Y-127142000D01*
X157579643Y-127112141D01*
X157721048Y-127053569D01*
X157740000Y-127040906D01*
X157740000Y-127356357D01*
X157737573Y-127381000D01*
X157740000Y-127405643D01*
X157740000Y-127405652D01*
X157747264Y-127479408D01*
X157775969Y-127574035D01*
X157822583Y-127661245D01*
X157885316Y-127737684D01*
X157904467Y-127753401D01*
X158498176Y-128347111D01*
X158498176Y-128820000D01*
X158505455Y-128893905D01*
X158527012Y-128964970D01*
X158562019Y-129030463D01*
X158609131Y-129087869D01*
X158666537Y-129134981D01*
X158732030Y-129169988D01*
X158803095Y-129191545D01*
X158877000Y-129198824D01*
X160401000Y-129198824D01*
X160474905Y-129191545D01*
X160545970Y-129169988D01*
X160611463Y-129134981D01*
X160668869Y-129087869D01*
X160715981Y-129030463D01*
X160750988Y-128964970D01*
X160772545Y-128893905D01*
X160779824Y-128820000D01*
X160779824Y-128548110D01*
X162007524Y-128548110D01*
X162128845Y-128778000D01*
X163322000Y-128778000D01*
X163322000Y-128758000D01*
X163576000Y-128758000D01*
X163576000Y-128778000D01*
X164769155Y-128778000D01*
X164890476Y-128548110D01*
X164845825Y-128400901D01*
X164720641Y-128138080D01*
X164546588Y-127904731D01*
X164330355Y-127709822D01*
X164080252Y-127560843D01*
X163920512Y-127504179D01*
X163920824Y-127504084D01*
X164133983Y-127390149D01*
X164320817Y-127236817D01*
X164474149Y-127049983D01*
X164588084Y-126836824D01*
X164658245Y-126605534D01*
X164681936Y-126365000D01*
X164658245Y-126124466D01*
X164588084Y-125893176D01*
X164474149Y-125680017D01*
X164320817Y-125493183D01*
X164133983Y-125339851D01*
X163920824Y-125225916D01*
X163689534Y-125155755D01*
X163509268Y-125138000D01*
X163388732Y-125138000D01*
X163208466Y-125155755D01*
X162977176Y-125225916D01*
X162764017Y-125339851D01*
X162577183Y-125493183D01*
X162423851Y-125680017D01*
X162309916Y-125893176D01*
X162239755Y-126124466D01*
X162216064Y-126365000D01*
X162239755Y-126605534D01*
X162309916Y-126836824D01*
X162423851Y-127049983D01*
X162577183Y-127236817D01*
X162764017Y-127390149D01*
X162977176Y-127504084D01*
X162977488Y-127504179D01*
X162817748Y-127560843D01*
X162567645Y-127709822D01*
X162351412Y-127904731D01*
X162177359Y-128138080D01*
X162052175Y-128400901D01*
X162007524Y-128548110D01*
X160779824Y-128548110D01*
X160779824Y-127720000D01*
X160772545Y-127646095D01*
X160750988Y-127575030D01*
X160721574Y-127520000D01*
X160750988Y-127464970D01*
X160772545Y-127393905D01*
X160779824Y-127320000D01*
X160779824Y-126220000D01*
X160772545Y-126146095D01*
X160750988Y-126075030D01*
X160721574Y-126020000D01*
X160750988Y-125964970D01*
X160772545Y-125893905D01*
X160779824Y-125820000D01*
X160779824Y-124720000D01*
X160772545Y-124646095D01*
X160750988Y-124575030D01*
X160721574Y-124520000D01*
X160750988Y-124464970D01*
X160772545Y-124393905D01*
X160779824Y-124320000D01*
X160779824Y-123825000D01*
X162216064Y-123825000D01*
X162239755Y-124065534D01*
X162309916Y-124296824D01*
X162423851Y-124509983D01*
X162577183Y-124696817D01*
X162764017Y-124850149D01*
X162977176Y-124964084D01*
X163208466Y-125034245D01*
X163388732Y-125052000D01*
X163509268Y-125052000D01*
X163689534Y-125034245D01*
X163920824Y-124964084D01*
X164133983Y-124850149D01*
X164320817Y-124696817D01*
X164474149Y-124509983D01*
X164588084Y-124296824D01*
X164658245Y-124065534D01*
X164681936Y-123825000D01*
X164658245Y-123584466D01*
X164588084Y-123353176D01*
X164474149Y-123140017D01*
X164320817Y-122953183D01*
X164133983Y-122799851D01*
X163920824Y-122685916D01*
X163689534Y-122615755D01*
X163509268Y-122598000D01*
X163388732Y-122598000D01*
X163208466Y-122615755D01*
X162977176Y-122685916D01*
X162764017Y-122799851D01*
X162577183Y-122953183D01*
X162423851Y-123140017D01*
X162309916Y-123353176D01*
X162239755Y-123584466D01*
X162216064Y-123825000D01*
X160779824Y-123825000D01*
X160779824Y-123220000D01*
X160772545Y-123146095D01*
X160750988Y-123075030D01*
X160721574Y-123020000D01*
X160750988Y-122964970D01*
X160772545Y-122893905D01*
X160779824Y-122820000D01*
X160779824Y-121720000D01*
X160772545Y-121646095D01*
X160750988Y-121575030D01*
X160721574Y-121520000D01*
X160750988Y-121464970D01*
X160772545Y-121393905D01*
X160779824Y-121320000D01*
X160779824Y-120220000D01*
X160772545Y-120146095D01*
X160750988Y-120075030D01*
X160721574Y-120020000D01*
X160750988Y-119964970D01*
X160772545Y-119893905D01*
X160779824Y-119820000D01*
X160779824Y-119579758D01*
X161387304Y-120187239D01*
X161387304Y-120307616D01*
X161417163Y-120457731D01*
X161475735Y-120599136D01*
X161560768Y-120726397D01*
X161668995Y-120834624D01*
X161796256Y-120919657D01*
X161937661Y-120978229D01*
X162087776Y-121008088D01*
X162240832Y-121008088D01*
X162251430Y-121005980D01*
X162239755Y-121044466D01*
X162216064Y-121285000D01*
X162239755Y-121525534D01*
X162309916Y-121756824D01*
X162423851Y-121969983D01*
X162577183Y-122156817D01*
X162764017Y-122310149D01*
X162977176Y-122424084D01*
X163208466Y-122494245D01*
X163388732Y-122512000D01*
X163509268Y-122512000D01*
X163689534Y-122494245D01*
X163920824Y-122424084D01*
X164133983Y-122310149D01*
X164320817Y-122156817D01*
X164474149Y-121969983D01*
X164588084Y-121756824D01*
X164658245Y-121525534D01*
X164681936Y-121285000D01*
X164658245Y-121044466D01*
X164588084Y-120813176D01*
X164474149Y-120600017D01*
X164320817Y-120413183D01*
X164133983Y-120259851D01*
X163920824Y-120145916D01*
X163689534Y-120075755D01*
X163509268Y-120058000D01*
X163388732Y-120058000D01*
X163208466Y-120075755D01*
X162977176Y-120145916D01*
X162941304Y-120165090D01*
X162941304Y-120154560D01*
X162911445Y-120004445D01*
X162852873Y-119863040D01*
X162805688Y-119792422D01*
X162977176Y-119884084D01*
X163208466Y-119954245D01*
X163388732Y-119972000D01*
X163509268Y-119972000D01*
X163689534Y-119954245D01*
X163920824Y-119884084D01*
X164133983Y-119770149D01*
X164320817Y-119616817D01*
X164474149Y-119429983D01*
X164588084Y-119216824D01*
X164658245Y-118985534D01*
X164681936Y-118745000D01*
X164658245Y-118504466D01*
X164588084Y-118273176D01*
X164474149Y-118060017D01*
X164320817Y-117873183D01*
X164133983Y-117719851D01*
X163920824Y-117605916D01*
X163689534Y-117535755D01*
X163509268Y-117518000D01*
X163388732Y-117518000D01*
X163208466Y-117535755D01*
X162977176Y-117605916D01*
X162764017Y-117719851D01*
X162577183Y-117873183D01*
X162423851Y-118060017D01*
X162309916Y-118273176D01*
X162239755Y-118504466D01*
X162216064Y-118745000D01*
X162239755Y-118985534D01*
X162309916Y-119216824D01*
X162423851Y-119429983D01*
X162507893Y-119532388D01*
X162390947Y-119483947D01*
X162240832Y-119454088D01*
X162087776Y-119454088D01*
X162076304Y-119456370D01*
X161538000Y-118918066D01*
X161538000Y-118135345D01*
X161639536Y-118033809D01*
X161724569Y-117906548D01*
X161783141Y-117765143D01*
X161813000Y-117615028D01*
X161813000Y-117461972D01*
X161783141Y-117311857D01*
X161724569Y-117170452D01*
X161639536Y-117043191D01*
X161531309Y-116934964D01*
X161404048Y-116849931D01*
X161262643Y-116791359D01*
X161112528Y-116761500D01*
X160959472Y-116761500D01*
X160809357Y-116791359D01*
X160779824Y-116803592D01*
X160779824Y-115720000D01*
X160772545Y-115646095D01*
X160750988Y-115575030D01*
X160721574Y-115520000D01*
X160750988Y-115464970D01*
X160772545Y-115393905D01*
X160776376Y-115355000D01*
X162220176Y-115355000D01*
X162220176Y-117055000D01*
X162227455Y-117128905D01*
X162249012Y-117199970D01*
X162284019Y-117265463D01*
X162331131Y-117322869D01*
X162388537Y-117369981D01*
X162454030Y-117404988D01*
X162525095Y-117426545D01*
X162599000Y-117433824D01*
X164299000Y-117433824D01*
X164372905Y-117426545D01*
X164443970Y-117404988D01*
X164509463Y-117369981D01*
X164566869Y-117322869D01*
X164613981Y-117265463D01*
X164648988Y-117199970D01*
X164670545Y-117128905D01*
X164677824Y-117055000D01*
X164677824Y-115355000D01*
X164670545Y-115281095D01*
X164648988Y-115210030D01*
X164613981Y-115144537D01*
X164566869Y-115087131D01*
X164509463Y-115040019D01*
X164443970Y-115005012D01*
X164372905Y-114983455D01*
X164299000Y-114976176D01*
X162599000Y-114976176D01*
X162525095Y-114983455D01*
X162454030Y-115005012D01*
X162388537Y-115040019D01*
X162331131Y-115087131D01*
X162284019Y-115144537D01*
X162249012Y-115210030D01*
X162227455Y-115281095D01*
X162220176Y-115355000D01*
X160776376Y-115355000D01*
X160779824Y-115320000D01*
X160779824Y-114220000D01*
X160772545Y-114146095D01*
X160750988Y-114075030D01*
X160721574Y-114020000D01*
X160750988Y-113964970D01*
X160772545Y-113893905D01*
X160779824Y-113820000D01*
X160779824Y-113146113D01*
X161373543Y-112552395D01*
X161392684Y-112536686D01*
X161408392Y-112517546D01*
X161408400Y-112517538D01*
X161455417Y-112460248D01*
X161502030Y-112373039D01*
X161502031Y-112373038D01*
X161530736Y-112278411D01*
X161538000Y-112204655D01*
X161538000Y-112204645D01*
X161540427Y-112180002D01*
X161538000Y-112155359D01*
X161538000Y-110578845D01*
X161639536Y-110477309D01*
X161724569Y-110350048D01*
X161783141Y-110208643D01*
X161813000Y-110058528D01*
X161813000Y-109905472D01*
X161783141Y-109755357D01*
X161724569Y-109613952D01*
X161639536Y-109486691D01*
X161531309Y-109378464D01*
X161404048Y-109293431D01*
X161262643Y-109234859D01*
X161112528Y-109205000D01*
X160959472Y-109205000D01*
X160810526Y-109234626D01*
X160755494Y-109189463D01*
X160645180Y-109130498D01*
X160525482Y-109094188D01*
X160401000Y-109081928D01*
X159924750Y-109085000D01*
X159766000Y-109243750D01*
X159766000Y-110143000D01*
X159786000Y-110143000D01*
X159786000Y-110397000D01*
X159766000Y-110397000D01*
X159766000Y-110417000D01*
X159512000Y-110417000D01*
X159512000Y-110397000D01*
X159492000Y-110397000D01*
X159492000Y-110143000D01*
X159512000Y-110143000D01*
X159512000Y-109243750D01*
X159353250Y-109085000D01*
X159334364Y-109084878D01*
X159346072Y-108966000D01*
X159343000Y-108489750D01*
X159184250Y-108331000D01*
X158285000Y-108331000D01*
X158285000Y-108351000D01*
X158031000Y-108351000D01*
X158031000Y-108331000D01*
X158011000Y-108331000D01*
X158011000Y-108077000D01*
X158031000Y-108077000D01*
X158031000Y-108057000D01*
X158285000Y-108057000D01*
X158285000Y-108077000D01*
X159184250Y-108077000D01*
X159343000Y-107918250D01*
X159346072Y-107442000D01*
X159333812Y-107317518D01*
X159297502Y-107197820D01*
X159281830Y-107168500D01*
X160235155Y-107168500D01*
X160286691Y-107220036D01*
X160413952Y-107305069D01*
X160555357Y-107363641D01*
X160705472Y-107393500D01*
X160858528Y-107393500D01*
X161008643Y-107363641D01*
X161150048Y-107305069D01*
X161277309Y-107220036D01*
X161385536Y-107111809D01*
X161470569Y-106984548D01*
X161529141Y-106843143D01*
X161559000Y-106693028D01*
X161559000Y-106539972D01*
X161529141Y-106389857D01*
X161470569Y-106248452D01*
X161385536Y-106121191D01*
X161277309Y-106012964D01*
X161150048Y-105927931D01*
X161008643Y-105869359D01*
X160858528Y-105839500D01*
X160705472Y-105839500D01*
X160555357Y-105869359D01*
X160413952Y-105927931D01*
X160286691Y-106012964D01*
X160235155Y-106064500D01*
X158924609Y-106064500D01*
X159144038Y-105947214D01*
X159300048Y-105631653D01*
X157988000Y-104319605D01*
X156675952Y-105631653D01*
X156831962Y-105947214D01*
X157062336Y-106064500D01*
X153835845Y-106064500D01*
X153784309Y-106012964D01*
X153657048Y-105927931D01*
X153576719Y-105894658D01*
X153797093Y-105803376D01*
X154104518Y-105597961D01*
X154365961Y-105336518D01*
X154571376Y-105029093D01*
X154712868Y-104687501D01*
X154785000Y-104324868D01*
X154785000Y-104182824D01*
X155843098Y-104182824D01*
X155892666Y-104600451D01*
X156022757Y-105000383D01*
X156180786Y-105296038D01*
X156496347Y-105452048D01*
X157808395Y-104140000D01*
X158167605Y-104140000D01*
X159479653Y-105452048D01*
X159795214Y-105296038D01*
X159986020Y-104921255D01*
X160100044Y-104516449D01*
X160132902Y-104097176D01*
X160083334Y-103679549D01*
X159953243Y-103279617D01*
X159795214Y-102983962D01*
X159479653Y-102827952D01*
X158167605Y-104140000D01*
X157808395Y-104140000D01*
X156496347Y-102827952D01*
X156180786Y-102983962D01*
X155989980Y-103358745D01*
X155875956Y-103763551D01*
X155843098Y-104182824D01*
X154785000Y-104182824D01*
X154785000Y-103955132D01*
X154712868Y-103592499D01*
X154571376Y-103250907D01*
X154365961Y-102943482D01*
X154104518Y-102682039D01*
X154054095Y-102648347D01*
X156675952Y-102648347D01*
X157988000Y-103960395D01*
X159300048Y-102648347D01*
X159144038Y-102332786D01*
X158769255Y-102141980D01*
X158364449Y-102027956D01*
X157945176Y-101995098D01*
X157527549Y-102044666D01*
X157127617Y-102174757D01*
X156831962Y-102332786D01*
X156675952Y-102648347D01*
X154054095Y-102648347D01*
X153797093Y-102476624D01*
X153455501Y-102335132D01*
X153092868Y-102263000D01*
X152723132Y-102263000D01*
X152360499Y-102335132D01*
X152018907Y-102476624D01*
X151711482Y-102682039D01*
X151450039Y-102943482D01*
X151244624Y-103250907D01*
X151103132Y-103592499D01*
X151031000Y-103955132D01*
X151031000Y-104324868D01*
X151103132Y-104687501D01*
X151244624Y-105029093D01*
X151450039Y-105336518D01*
X151529521Y-105416000D01*
X150299103Y-105416000D01*
X150268652Y-105413001D01*
X150268642Y-105413001D01*
X150243999Y-105410574D01*
X150219356Y-105413001D01*
X149706824Y-105413001D01*
X149706824Y-102640000D01*
X149699545Y-102566095D01*
X149677988Y-102495030D01*
X149642981Y-102429537D01*
X149595869Y-102372131D01*
X149538463Y-102325019D01*
X149472970Y-102290012D01*
X149401905Y-102268455D01*
X149328000Y-102261176D01*
X146328000Y-102261176D01*
X146254095Y-102268455D01*
X146183030Y-102290012D01*
X146117537Y-102325019D01*
X146060131Y-102372131D01*
X146013019Y-102429537D01*
X145978012Y-102495030D01*
X145956455Y-102566095D01*
X145949176Y-102640000D01*
X145949176Y-105640000D01*
X145956455Y-105713905D01*
X145978012Y-105784970D01*
X146013019Y-105850463D01*
X146060131Y-105907869D01*
X146117537Y-105954981D01*
X146183030Y-105989988D01*
X146254095Y-106011545D01*
X146328000Y-106018824D01*
X147326238Y-106018824D01*
X144802462Y-108542602D01*
X144783316Y-108558315D01*
X144767603Y-108577461D01*
X144767600Y-108577464D01*
X144720583Y-108634754D01*
X144673969Y-108721963D01*
X144645264Y-108816590D01*
X144635572Y-108914999D01*
X144638000Y-108939652D01*
X144637999Y-111360039D01*
X144544134Y-111412702D01*
X144498643Y-111393859D01*
X144348528Y-111364000D01*
X144195472Y-111364000D01*
X144045357Y-111393859D01*
X143903952Y-111452431D01*
X143776691Y-111537464D01*
X143668464Y-111645691D01*
X143583431Y-111772952D01*
X143524859Y-111914357D01*
X143495000Y-112064472D01*
X140737000Y-112064472D01*
X140737000Y-101464377D01*
X140990000Y-101464377D01*
X140990000Y-101735623D01*
X141042917Y-102001656D01*
X141146718Y-102252254D01*
X141297414Y-102477787D01*
X141489213Y-102669586D01*
X141714746Y-102820282D01*
X141965344Y-102924083D01*
X142231377Y-102977000D01*
X142502623Y-102977000D01*
X142768656Y-102924083D01*
X143019254Y-102820282D01*
X143244787Y-102669586D01*
X143436586Y-102477787D01*
X143587282Y-102252254D01*
X143691083Y-102001656D01*
X143744000Y-101735623D01*
X143744000Y-101464377D01*
X143691083Y-101198344D01*
X143587282Y-100947746D01*
X143436586Y-100722213D01*
X143244787Y-100530414D01*
X143019254Y-100379718D01*
X142768656Y-100275917D01*
X142502623Y-100223000D01*
X142231377Y-100223000D01*
X141965344Y-100275917D01*
X141714746Y-100379718D01*
X141489213Y-100530414D01*
X141297414Y-100722213D01*
X141146718Y-100947746D01*
X141042917Y-101198344D01*
X140990000Y-101464377D01*
X140737000Y-101464377D01*
X140737000Y-98192000D01*
X165968000Y-98192000D01*
X165968001Y-159110000D01*
X165968001Y-159110000D01*
G37*
X165968001Y-159110000D02*
X140737000Y-159110000D01*
X140737000Y-155629877D01*
X140990000Y-155629877D01*
X140990000Y-155901123D01*
X141042917Y-156167156D01*
X141146718Y-156417754D01*
X141297414Y-156643287D01*
X141489213Y-156835086D01*
X141714746Y-156985782D01*
X141965344Y-157089583D01*
X142231377Y-157142500D01*
X142502623Y-157142500D01*
X142768656Y-157089583D01*
X143019254Y-156985782D01*
X143244787Y-156835086D01*
X143436586Y-156643287D01*
X143587282Y-156417754D01*
X143691083Y-156167156D01*
X143744000Y-155901123D01*
X143744000Y-155629877D01*
X143691083Y-155363844D01*
X143587282Y-155113246D01*
X143436586Y-154887713D01*
X143244787Y-154695914D01*
X143019254Y-154545218D01*
X142768656Y-154441417D01*
X142502623Y-154388500D01*
X142231377Y-154388500D01*
X141965344Y-154441417D01*
X141714746Y-154545218D01*
X141489213Y-154695914D01*
X141297414Y-154887713D01*
X141146718Y-155113246D01*
X141042917Y-155363844D01*
X140990000Y-155629877D01*
X140737000Y-155629877D01*
X140737000Y-153310692D01*
X152144414Y-153310692D01*
X152336502Y-153656969D01*
X152762346Y-153877703D01*
X153223071Y-154011118D01*
X153700971Y-154052085D01*
X154177681Y-153999032D01*
X154634881Y-153853998D01*
X155003498Y-153656969D01*
X155195586Y-153310692D01*
X153670000Y-151785105D01*
X152144414Y-153310692D01*
X140737000Y-153310692D01*
X140737000Y-151445818D01*
X141641000Y-151445818D01*
X141641000Y-151670182D01*
X141684771Y-151890234D01*
X141770631Y-152097519D01*
X141895281Y-152284070D01*
X142053930Y-152442719D01*
X142240481Y-152567369D01*
X142447766Y-152653229D01*
X142667818Y-152697000D01*
X142892182Y-152697000D01*
X143112234Y-152653229D01*
X143319519Y-152567369D01*
X143506070Y-152442719D01*
X143664719Y-152284070D01*
X143780000Y-152111541D01*
X143895281Y-152284070D01*
X144053930Y-152442719D01*
X144240481Y-152567369D01*
X144447766Y-152653229D01*
X144667818Y-152697000D01*
X144892182Y-152697000D01*
X145112234Y-152653229D01*
X145319519Y-152567369D01*
X145506070Y-152442719D01*
X145664719Y-152284070D01*
X145780000Y-152111541D01*
X145895281Y-152284070D01*
X146053930Y-152442719D01*
X146240481Y-152567369D01*
X146447766Y-152653229D01*
X146667818Y-152697000D01*
X146892182Y-152697000D01*
X147112234Y-152653229D01*
X147319519Y-152567369D01*
X147506070Y-152442719D01*
X147664719Y-152284070D01*
X147789369Y-152097519D01*
X147875229Y-151890234D01*
X147919000Y-151670182D01*
X147919000Y-151636471D01*
X151223415Y-151636471D01*
X151276468Y-152113181D01*
X151421502Y-152570381D01*
X151618531Y-152938998D01*
X151964808Y-153131086D01*
X153490395Y-151605500D01*
X153849605Y-151605500D01*
X155375192Y-153131086D01*
X155721469Y-152938998D01*
X155942203Y-152513154D01*
X156075618Y-152052429D01*
X156116585Y-151574529D01*
X156063532Y-151097819D01*
X155918498Y-150640619D01*
X155721469Y-150272002D01*
X155375192Y-150079914D01*
X153849605Y-151605500D01*
X153490395Y-151605500D01*
X151964808Y-150079914D01*
X151618531Y-150272002D01*
X151397797Y-150697846D01*
X151264382Y-151158571D01*
X151223415Y-151636471D01*
X147919000Y-151636471D01*
X147919000Y-151445818D01*
X147875229Y-151225766D01*
X147789369Y-151018481D01*
X147664719Y-150831930D01*
X147506070Y-150673281D01*
X147319519Y-150548631D01*
X147112234Y-150462771D01*
X146892182Y-150419000D01*
X146667818Y-150419000D01*
X146447766Y-150462771D01*
X146240481Y-150548631D01*
X146053930Y-150673281D01*
X145895281Y-150831930D01*
X145780000Y-151004459D01*
X145664719Y-150831930D01*
X145506070Y-150673281D01*
X145319519Y-150548631D01*
X145112234Y-150462771D01*
X144892182Y-150419000D01*
X144667818Y-150419000D01*
X144447766Y-150462771D01*
X144240481Y-150548631D01*
X144053930Y-150673281D01*
X143895281Y-150831930D01*
X143780000Y-151004459D01*
X143664719Y-150831930D01*
X143506070Y-150673281D01*
X143319519Y-150548631D01*
X143112234Y-150462771D01*
X142892182Y-150419000D01*
X142667818Y-150419000D01*
X142447766Y-150462771D01*
X142240481Y-150548631D01*
X142053930Y-150673281D01*
X141895281Y-150831930D01*
X141770631Y-151018481D01*
X141684771Y-151225766D01*
X141641000Y-151445818D01*
X140737000Y-151445818D01*
X140737000Y-149900308D01*
X152144414Y-149900308D01*
X153670000Y-151425895D01*
X155195586Y-149900308D01*
X155003498Y-149554031D01*
X154577654Y-149333297D01*
X154116929Y-149199882D01*
X153639029Y-149158915D01*
X153162319Y-149211968D01*
X152705119Y-149357002D01*
X152336502Y-149554031D01*
X152144414Y-149900308D01*
X140737000Y-149900308D01*
X140737000Y-148391084D01*
X156193000Y-148391084D01*
X156193000Y-148819916D01*
X156276660Y-149240508D01*
X156440767Y-149636696D01*
X156679013Y-149993257D01*
X156982243Y-150296487D01*
X157338804Y-150534733D01*
X157734992Y-150698840D01*
X158155584Y-150782500D01*
X158584416Y-150782500D01*
X159005008Y-150698840D01*
X159401196Y-150534733D01*
X159757757Y-150296487D01*
X160060987Y-149993257D01*
X160299233Y-149636696D01*
X160463340Y-149240508D01*
X160547000Y-148819916D01*
X160547000Y-148391084D01*
X160463340Y-147970492D01*
X160299233Y-147574304D01*
X160060987Y-147217743D01*
X159757757Y-146914513D01*
X159401196Y-146676267D01*
X159005008Y-146512160D01*
X158584416Y-146428500D01*
X158155584Y-146428500D01*
X157734992Y-146512160D01*
X157338804Y-146676267D01*
X156982243Y-146914513D01*
X156679013Y-147217743D01*
X156440767Y-147574304D01*
X156276660Y-147970492D01*
X156193000Y-148391084D01*
X140737000Y-148391084D01*
X140737000Y-145796000D01*
X141639176Y-145796000D01*
X141639176Y-147320000D01*
X141646455Y-147393905D01*
X141668012Y-147464970D01*
X141703019Y-147530463D01*
X141750131Y-147587869D01*
X141807537Y-147634981D01*
X141873030Y-147669988D01*
X141944095Y-147691545D01*
X142018000Y-147698824D01*
X143542000Y-147698824D01*
X143615905Y-147691545D01*
X143686970Y-147669988D01*
X143752463Y-147634981D01*
X143809869Y-147587869D01*
X143856981Y-147530463D01*
X143891988Y-147464970D01*
X143913545Y-147393905D01*
X143920824Y-147320000D01*
X143920824Y-147309613D01*
X144053930Y-147442719D01*
X144240481Y-147567369D01*
X144447766Y-147653229D01*
X144667818Y-147697000D01*
X144892182Y-147697000D01*
X145112234Y-147653229D01*
X145319519Y-147567369D01*
X145385075Y-147523565D01*
X145994040Y-147523565D01*
X146061020Y-147763656D01*
X146310048Y-147880756D01*
X146577135Y-147947023D01*
X146852017Y-147959910D01*
X147124133Y-147918922D01*
X147383023Y-147825636D01*
X147498980Y-147763656D01*
X147565960Y-147523565D01*
X146780000Y-146737605D01*
X145994040Y-147523565D01*
X145385075Y-147523565D01*
X145506070Y-147442719D01*
X145650549Y-147298240D01*
X145814435Y-147343960D01*
X146600395Y-146558000D01*
X146959605Y-146558000D01*
X147745565Y-147343960D01*
X147985656Y-147276980D01*
X148102756Y-147027952D01*
X148169023Y-146760865D01*
X148181910Y-146485983D01*
X148140922Y-146213867D01*
X148047636Y-145954977D01*
X147985656Y-145839020D01*
X147745565Y-145772040D01*
X146959605Y-146558000D01*
X146600395Y-146558000D01*
X145814435Y-145772040D01*
X145650549Y-145817760D01*
X145506070Y-145673281D01*
X145385077Y-145592435D01*
X145994040Y-145592435D01*
X146780000Y-146378395D01*
X147565960Y-145592435D01*
X147498980Y-145352344D01*
X147249952Y-145235244D01*
X146982865Y-145168977D01*
X146707983Y-145156090D01*
X146435867Y-145197078D01*
X146176977Y-145290364D01*
X146061020Y-145352344D01*
X145994040Y-145592435D01*
X145385077Y-145592435D01*
X145346312Y-145566533D01*
X145383536Y-145529309D01*
X145468569Y-145402048D01*
X145527141Y-145260643D01*
X145557000Y-145110528D01*
X145557000Y-144957472D01*
X145527141Y-144807357D01*
X145468569Y-144665952D01*
X145383536Y-144538691D01*
X145282000Y-144437155D01*
X145282000Y-143844934D01*
X145321434Y-143805500D01*
X151491176Y-143805500D01*
X151491176Y-147405500D01*
X151498455Y-147479405D01*
X151520012Y-147550470D01*
X151555019Y-147615963D01*
X151602131Y-147673369D01*
X151659537Y-147720481D01*
X151725030Y-147755488D01*
X151796095Y-147777045D01*
X151870000Y-147784324D01*
X155470000Y-147784324D01*
X155543905Y-147777045D01*
X155614970Y-147755488D01*
X155680463Y-147720481D01*
X155737869Y-147673369D01*
X155784981Y-147615963D01*
X155819988Y-147550470D01*
X155841545Y-147479405D01*
X155848824Y-147405500D01*
X155848824Y-143805500D01*
X155841545Y-143731595D01*
X155819988Y-143660530D01*
X155784981Y-143595037D01*
X155737869Y-143537631D01*
X155680463Y-143490519D01*
X155614970Y-143455512D01*
X155543905Y-143433955D01*
X155470000Y-143426676D01*
X151870000Y-143426676D01*
X151796095Y-143433955D01*
X151725030Y-143455512D01*
X151659537Y-143490519D01*
X151602131Y-143537631D01*
X151555019Y-143595037D01*
X151520012Y-143660530D01*
X151498455Y-143731595D01*
X151491176Y-143805500D01*
X145321434Y-143805500D01*
X146384935Y-142742000D01*
X149263155Y-142742000D01*
X149364691Y-142843536D01*
X149491952Y-142928569D01*
X149633357Y-142987141D01*
X149783472Y-143017000D01*
X149936528Y-143017000D01*
X150086643Y-142987141D01*
X150228048Y-142928569D01*
X150355309Y-142843536D01*
X150463536Y-142735309D01*
X150548569Y-142608048D01*
X150607141Y-142466643D01*
X150637000Y-142316528D01*
X150637000Y-142163472D01*
X150607141Y-142013357D01*
X150548569Y-141871952D01*
X150463536Y-141744691D01*
X150355309Y-141636464D01*
X150228048Y-141551431D01*
X150086643Y-141492859D01*
X149936528Y-141463000D01*
X149783472Y-141463000D01*
X149633357Y-141492859D01*
X149491952Y-141551431D01*
X149364691Y-141636464D01*
X149263155Y-141738000D01*
X146201642Y-141738000D01*
X146176999Y-141735573D01*
X146152356Y-141738000D01*
X146152347Y-141738000D01*
X146078591Y-141745264D01*
X145983964Y-141773969D01*
X145896755Y-141820583D01*
X145820316Y-141883316D01*
X145804603Y-141902462D01*
X144442463Y-143264603D01*
X144423317Y-143280316D01*
X144407604Y-143299462D01*
X144407601Y-143299465D01*
X144360584Y-143356755D01*
X144313970Y-143443964D01*
X144285265Y-143538591D01*
X144275573Y-143637000D01*
X144278001Y-143661653D01*
X144278000Y-144437155D01*
X144176464Y-144538691D01*
X144091431Y-144665952D01*
X144032859Y-144807357D01*
X144003000Y-144957472D01*
X144003000Y-145110528D01*
X144032859Y-145260643D01*
X144091431Y-145402048D01*
X144176464Y-145529309D01*
X144213688Y-145566533D01*
X144053930Y-145673281D01*
X143920824Y-145806387D01*
X143920824Y-145796000D01*
X143913545Y-145722095D01*
X143891988Y-145651030D01*
X143856981Y-145585537D01*
X143809869Y-145528131D01*
X143752463Y-145481019D01*
X143686970Y-145446012D01*
X143615905Y-145424455D01*
X143542000Y-145417176D01*
X142018000Y-145417176D01*
X141944095Y-145424455D01*
X141873030Y-145446012D01*
X141807537Y-145481019D01*
X141750131Y-145528131D01*
X141703019Y-145585537D01*
X141668012Y-145651030D01*
X141646455Y-145722095D01*
X141639176Y-145796000D01*
X140737000Y-145796000D01*
X140737000Y-129387600D01*
X146431000Y-129387600D01*
X146431000Y-135382000D01*
X146433440Y-135406776D01*
X146440667Y-135430601D01*
X146452403Y-135452557D01*
X146468197Y-135471803D01*
X146487443Y-135487597D01*
X146509399Y-135499333D01*
X146533224Y-135506560D01*
X146557492Y-135508999D01*
X159257492Y-135559799D01*
X159282278Y-135557458D01*
X159306131Y-135550326D01*
X159328134Y-135538678D01*
X159347443Y-135522961D01*
X159363314Y-135503779D01*
X159375137Y-135481870D01*
X159382460Y-135458075D01*
X159385000Y-135432800D01*
X159385000Y-129387600D01*
X159382560Y-129362824D01*
X159375333Y-129338999D01*
X159363597Y-129317043D01*
X159347803Y-129297797D01*
X159328557Y-129282003D01*
X159306601Y-129270267D01*
X159282776Y-129263040D01*
X159271099Y-129261890D01*
X162007524Y-129261890D01*
X162052175Y-129409099D01*
X162177359Y-129671920D01*
X162351412Y-129905269D01*
X162567645Y-130100178D01*
X162817748Y-130249157D01*
X163092109Y-130346481D01*
X163322000Y-130225814D01*
X163322000Y-129032000D01*
X163576000Y-129032000D01*
X163576000Y-130225814D01*
X163805891Y-130346481D01*
X164080252Y-130249157D01*
X164330355Y-130100178D01*
X164546588Y-129905269D01*
X164720641Y-129671920D01*
X164845825Y-129409099D01*
X164890476Y-129261890D01*
X164769155Y-129032000D01*
X163576000Y-129032000D01*
X163322000Y-129032000D01*
X162128845Y-129032000D01*
X162007524Y-129261890D01*
X159271099Y-129261890D01*
X159258000Y-129260600D01*
X146558000Y-129260600D01*
X146533224Y-129263040D01*
X146509399Y-129270267D01*
X146487443Y-129282003D01*
X146468197Y-129297797D01*
X146452403Y-129317043D01*
X146440667Y-129338999D01*
X146433440Y-129362824D01*
X146431000Y-129387600D01*
X140737000Y-129387600D01*
X140737000Y-112064472D01*
X143495000Y-112064472D01*
X143495000Y-112217528D01*
X143524859Y-112367643D01*
X143583431Y-112509048D01*
X143668464Y-112636309D01*
X143776691Y-112744536D01*
X143903952Y-112829569D01*
X144045357Y-112888141D01*
X144179147Y-112914753D01*
X144158265Y-112983591D01*
X144148573Y-113082000D01*
X144151001Y-113106652D01*
X144151001Y-113322154D01*
X144049464Y-113423691D01*
X143964431Y-113550952D01*
X143905859Y-113692357D01*
X143876000Y-113842472D01*
X143876000Y-113995528D01*
X143905859Y-114145643D01*
X143964431Y-114287048D01*
X144049464Y-114414309D01*
X144157691Y-114522536D01*
X144284952Y-114607569D01*
X144426357Y-114666141D01*
X144576472Y-114696000D01*
X144729528Y-114696000D01*
X144879643Y-114666141D01*
X145021048Y-114607569D01*
X145036176Y-114597461D01*
X145036176Y-115320000D01*
X145043455Y-115393905D01*
X145065012Y-115464970D01*
X145094426Y-115520000D01*
X145065012Y-115575030D01*
X145043455Y-115646095D01*
X145036176Y-115720000D01*
X145036176Y-116820000D01*
X145043455Y-116893905D01*
X145065012Y-116964970D01*
X145094426Y-117020000D01*
X145065012Y-117075030D01*
X145043455Y-117146095D01*
X145036176Y-117220000D01*
X145036176Y-118320000D01*
X145043455Y-118393905D01*
X145065012Y-118464970D01*
X145094426Y-118520000D01*
X145065012Y-118575030D01*
X145043455Y-118646095D01*
X145036176Y-118720000D01*
X145036176Y-119820000D01*
X145043455Y-119893905D01*
X145065012Y-119964970D01*
X145094426Y-120020000D01*
X145065012Y-120075030D01*
X145043455Y-120146095D01*
X145036176Y-120220000D01*
X145036176Y-121320000D01*
X145043455Y-121393905D01*
X145065012Y-121464970D01*
X145094426Y-121520000D01*
X145065012Y-121575030D01*
X145043455Y-121646095D01*
X145036176Y-121720000D01*
X145036176Y-122820000D01*
X145043455Y-122893905D01*
X145065012Y-122964970D01*
X145094426Y-123020000D01*
X145065012Y-123075030D01*
X145043455Y-123146095D01*
X145036176Y-123220000D01*
X145036176Y-124320000D01*
X145043455Y-124393905D01*
X145065012Y-124464970D01*
X145094426Y-124520000D01*
X145065012Y-124575030D01*
X145043455Y-124646095D01*
X145036176Y-124720000D01*
X145036176Y-125820000D01*
X145043455Y-125893905D01*
X145065012Y-125964970D01*
X145094426Y-126020000D01*
X145065012Y-126075030D01*
X145043455Y-126146095D01*
X145036176Y-126220000D01*
X145036176Y-127320000D01*
X145043455Y-127393905D01*
X145065012Y-127464970D01*
X145094426Y-127520000D01*
X145065012Y-127575030D01*
X145043455Y-127646095D01*
X145036176Y-127720000D01*
X145036176Y-128820000D01*
X145043455Y-128893905D01*
X145065012Y-128964970D01*
X145100019Y-129030463D01*
X145147131Y-129087869D01*
X145204537Y-129134981D01*
X145270030Y-129169988D01*
X145341095Y-129191545D01*
X145415000Y-129198824D01*
X146939000Y-129198824D01*
X147012905Y-129191545D01*
X147083970Y-129169988D01*
X147149463Y-129134981D01*
X147206869Y-129087869D01*
X147253981Y-129030463D01*
X147288988Y-128964970D01*
X147310545Y-128893905D01*
X147317824Y-128820000D01*
X147317824Y-128755510D01*
X147382036Y-128736031D01*
X147469245Y-128689417D01*
X147545684Y-128626684D01*
X147561401Y-128607533D01*
X148419543Y-127749393D01*
X148438684Y-127733684D01*
X148454392Y-127714544D01*
X148454400Y-127714536D01*
X148501417Y-127657246D01*
X148538499Y-127587869D01*
X148548031Y-127570036D01*
X148576736Y-127475409D01*
X148584000Y-127401653D01*
X148584000Y-127401643D01*
X148586427Y-127377000D01*
X148584000Y-127352357D01*
X148584000Y-119665397D01*
X148643798Y-119705353D01*
X148867097Y-119797847D01*
X149104151Y-119845000D01*
X149345849Y-119845000D01*
X149582903Y-119797847D01*
X149806202Y-119705353D01*
X150007167Y-119571073D01*
X150178073Y-119400167D01*
X150312353Y-119199202D01*
X150404847Y-118975903D01*
X150452000Y-118738849D01*
X150452000Y-118497151D01*
X150404847Y-118260097D01*
X150312353Y-118036798D01*
X150178073Y-117835833D01*
X150007167Y-117664927D01*
X149806202Y-117530647D01*
X149582903Y-117438153D01*
X149345849Y-117391000D01*
X149104151Y-117391000D01*
X148867097Y-117438153D01*
X148643798Y-117530647D01*
X148584000Y-117570603D01*
X148584000Y-117301934D01*
X150154467Y-115731467D01*
X150187431Y-115811048D01*
X150272464Y-115938309D01*
X150380691Y-116046536D01*
X150507952Y-116131569D01*
X150628001Y-116181295D01*
X150628000Y-122593155D01*
X150526464Y-122694691D01*
X150441431Y-122821952D01*
X150382859Y-122963357D01*
X150353000Y-123113472D01*
X150353000Y-123266528D01*
X150382859Y-123416643D01*
X150441431Y-123558048D01*
X150526464Y-123685309D01*
X150634691Y-123793536D01*
X150761952Y-123878569D01*
X150903357Y-123937141D01*
X151053472Y-123967000D01*
X151206528Y-123967000D01*
X151356643Y-123937141D01*
X151498048Y-123878569D01*
X151625309Y-123793536D01*
X151733536Y-123685309D01*
X151818569Y-123558048D01*
X151877141Y-123416643D01*
X151907000Y-123266528D01*
X151907000Y-123193644D01*
X154849427Y-120251218D01*
X154894755Y-120288418D01*
X154930673Y-120307616D01*
X154981965Y-120335032D01*
X155076592Y-120363737D01*
X155150348Y-120371001D01*
X155150358Y-120371001D01*
X155175001Y-120373428D01*
X155184366Y-120372506D01*
X155208859Y-120495643D01*
X155267431Y-120637048D01*
X155352464Y-120764309D01*
X155460691Y-120872536D01*
X155587952Y-120957569D01*
X155729357Y-121016141D01*
X155879472Y-121046000D01*
X156032528Y-121046000D01*
X156182643Y-121016141D01*
X156324048Y-120957569D01*
X156451309Y-120872536D01*
X156559536Y-120764309D01*
X156644569Y-120637048D01*
X156703141Y-120495643D01*
X156733000Y-120345528D01*
X156733000Y-120192472D01*
X156703141Y-120042357D01*
X156644569Y-119900952D01*
X156559536Y-119773691D01*
X156451309Y-119665464D01*
X156324048Y-119580431D01*
X156182643Y-119521859D01*
X156032528Y-119492000D01*
X155887929Y-119492000D01*
X155836246Y-119449584D01*
X155749037Y-119402970D01*
X155709629Y-119391016D01*
X156576000Y-118524646D01*
X156576000Y-118567528D01*
X156605859Y-118717643D01*
X156664431Y-118859048D01*
X156749464Y-118986309D01*
X156851001Y-119087846D01*
X156851000Y-125768155D01*
X156749464Y-125869691D01*
X156664431Y-125996952D01*
X156605859Y-126138357D01*
X156576000Y-126288472D01*
X156576000Y-126441528D01*
X156605859Y-126591643D01*
X156664431Y-126733048D01*
X156749464Y-126860309D01*
X156857691Y-126968536D01*
X156984952Y-127053569D01*
X157126357Y-127112141D01*
X157276472Y-127142000D01*
X157429528Y-127142000D01*
X157579643Y-127112141D01*
X157721048Y-127053569D01*
X157740000Y-127040906D01*
X157740000Y-127356357D01*
X157737573Y-127381000D01*
X157740000Y-127405643D01*
X157740000Y-127405652D01*
X157747264Y-127479408D01*
X157775969Y-127574035D01*
X157822583Y-127661245D01*
X157885316Y-127737684D01*
X157904467Y-127753401D01*
X158498176Y-128347111D01*
X158498176Y-128820000D01*
X158505455Y-128893905D01*
X158527012Y-128964970D01*
X158562019Y-129030463D01*
X158609131Y-129087869D01*
X158666537Y-129134981D01*
X158732030Y-129169988D01*
X158803095Y-129191545D01*
X158877000Y-129198824D01*
X160401000Y-129198824D01*
X160474905Y-129191545D01*
X160545970Y-129169988D01*
X160611463Y-129134981D01*
X160668869Y-129087869D01*
X160715981Y-129030463D01*
X160750988Y-128964970D01*
X160772545Y-128893905D01*
X160779824Y-128820000D01*
X160779824Y-128548110D01*
X162007524Y-128548110D01*
X162128845Y-128778000D01*
X163322000Y-128778000D01*
X163322000Y-128758000D01*
X163576000Y-128758000D01*
X163576000Y-128778000D01*
X164769155Y-128778000D01*
X164890476Y-128548110D01*
X164845825Y-128400901D01*
X164720641Y-128138080D01*
X164546588Y-127904731D01*
X164330355Y-127709822D01*
X164080252Y-127560843D01*
X163920512Y-127504179D01*
X163920824Y-127504084D01*
X164133983Y-127390149D01*
X164320817Y-127236817D01*
X164474149Y-127049983D01*
X164588084Y-126836824D01*
X164658245Y-126605534D01*
X164681936Y-126365000D01*
X164658245Y-126124466D01*
X164588084Y-125893176D01*
X164474149Y-125680017D01*
X164320817Y-125493183D01*
X164133983Y-125339851D01*
X163920824Y-125225916D01*
X163689534Y-125155755D01*
X163509268Y-125138000D01*
X163388732Y-125138000D01*
X163208466Y-125155755D01*
X162977176Y-125225916D01*
X162764017Y-125339851D01*
X162577183Y-125493183D01*
X162423851Y-125680017D01*
X162309916Y-125893176D01*
X162239755Y-126124466D01*
X162216064Y-126365000D01*
X162239755Y-126605534D01*
X162309916Y-126836824D01*
X162423851Y-127049983D01*
X162577183Y-127236817D01*
X162764017Y-127390149D01*
X162977176Y-127504084D01*
X162977488Y-127504179D01*
X162817748Y-127560843D01*
X162567645Y-127709822D01*
X162351412Y-127904731D01*
X162177359Y-128138080D01*
X162052175Y-128400901D01*
X162007524Y-128548110D01*
X160779824Y-128548110D01*
X160779824Y-127720000D01*
X160772545Y-127646095D01*
X160750988Y-127575030D01*
X160721574Y-127520000D01*
X160750988Y-127464970D01*
X160772545Y-127393905D01*
X160779824Y-127320000D01*
X160779824Y-126220000D01*
X160772545Y-126146095D01*
X160750988Y-126075030D01*
X160721574Y-126020000D01*
X160750988Y-125964970D01*
X160772545Y-125893905D01*
X160779824Y-125820000D01*
X160779824Y-124720000D01*
X160772545Y-124646095D01*
X160750988Y-124575030D01*
X160721574Y-124520000D01*
X160750988Y-124464970D01*
X160772545Y-124393905D01*
X160779824Y-124320000D01*
X160779824Y-123825000D01*
X162216064Y-123825000D01*
X162239755Y-124065534D01*
X162309916Y-124296824D01*
X162423851Y-124509983D01*
X162577183Y-124696817D01*
X162764017Y-124850149D01*
X162977176Y-124964084D01*
X163208466Y-125034245D01*
X163388732Y-125052000D01*
X163509268Y-125052000D01*
X163689534Y-125034245D01*
X163920824Y-124964084D01*
X164133983Y-124850149D01*
X164320817Y-124696817D01*
X164474149Y-124509983D01*
X164588084Y-124296824D01*
X164658245Y-124065534D01*
X164681936Y-123825000D01*
X164658245Y-123584466D01*
X164588084Y-123353176D01*
X164474149Y-123140017D01*
X164320817Y-122953183D01*
X164133983Y-122799851D01*
X163920824Y-122685916D01*
X163689534Y-122615755D01*
X163509268Y-122598000D01*
X163388732Y-122598000D01*
X163208466Y-122615755D01*
X162977176Y-122685916D01*
X162764017Y-122799851D01*
X162577183Y-122953183D01*
X162423851Y-123140017D01*
X162309916Y-123353176D01*
X162239755Y-123584466D01*
X162216064Y-123825000D01*
X160779824Y-123825000D01*
X160779824Y-123220000D01*
X160772545Y-123146095D01*
X160750988Y-123075030D01*
X160721574Y-123020000D01*
X160750988Y-122964970D01*
X160772545Y-122893905D01*
X160779824Y-122820000D01*
X160779824Y-121720000D01*
X160772545Y-121646095D01*
X160750988Y-121575030D01*
X160721574Y-121520000D01*
X160750988Y-121464970D01*
X160772545Y-121393905D01*
X160779824Y-121320000D01*
X160779824Y-120220000D01*
X160772545Y-120146095D01*
X160750988Y-120075030D01*
X160721574Y-120020000D01*
X160750988Y-119964970D01*
X160772545Y-119893905D01*
X160779824Y-119820000D01*
X160779824Y-119579758D01*
X161387304Y-120187239D01*
X161387304Y-120307616D01*
X161417163Y-120457731D01*
X161475735Y-120599136D01*
X161560768Y-120726397D01*
X161668995Y-120834624D01*
X161796256Y-120919657D01*
X161937661Y-120978229D01*
X162087776Y-121008088D01*
X162240832Y-121008088D01*
X162251430Y-121005980D01*
X162239755Y-121044466D01*
X162216064Y-121285000D01*
X162239755Y-121525534D01*
X162309916Y-121756824D01*
X162423851Y-121969983D01*
X162577183Y-122156817D01*
X162764017Y-122310149D01*
X162977176Y-122424084D01*
X163208466Y-122494245D01*
X163388732Y-122512000D01*
X163509268Y-122512000D01*
X163689534Y-122494245D01*
X163920824Y-122424084D01*
X164133983Y-122310149D01*
X164320817Y-122156817D01*
X164474149Y-121969983D01*
X164588084Y-121756824D01*
X164658245Y-121525534D01*
X164681936Y-121285000D01*
X164658245Y-121044466D01*
X164588084Y-120813176D01*
X164474149Y-120600017D01*
X164320817Y-120413183D01*
X164133983Y-120259851D01*
X163920824Y-120145916D01*
X163689534Y-120075755D01*
X163509268Y-120058000D01*
X163388732Y-120058000D01*
X163208466Y-120075755D01*
X162977176Y-120145916D01*
X162941304Y-120165090D01*
X162941304Y-120154560D01*
X162911445Y-120004445D01*
X162852873Y-119863040D01*
X162805688Y-119792422D01*
X162977176Y-119884084D01*
X163208466Y-119954245D01*
X163388732Y-119972000D01*
X163509268Y-119972000D01*
X163689534Y-119954245D01*
X163920824Y-119884084D01*
X164133983Y-119770149D01*
X164320817Y-119616817D01*
X164474149Y-119429983D01*
X164588084Y-119216824D01*
X164658245Y-118985534D01*
X164681936Y-118745000D01*
X164658245Y-118504466D01*
X164588084Y-118273176D01*
X164474149Y-118060017D01*
X164320817Y-117873183D01*
X164133983Y-117719851D01*
X163920824Y-117605916D01*
X163689534Y-117535755D01*
X163509268Y-117518000D01*
X163388732Y-117518000D01*
X163208466Y-117535755D01*
X162977176Y-117605916D01*
X162764017Y-117719851D01*
X162577183Y-117873183D01*
X162423851Y-118060017D01*
X162309916Y-118273176D01*
X162239755Y-118504466D01*
X162216064Y-118745000D01*
X162239755Y-118985534D01*
X162309916Y-119216824D01*
X162423851Y-119429983D01*
X162507893Y-119532388D01*
X162390947Y-119483947D01*
X162240832Y-119454088D01*
X162087776Y-119454088D01*
X162076304Y-119456370D01*
X161538000Y-118918066D01*
X161538000Y-118135345D01*
X161639536Y-118033809D01*
X161724569Y-117906548D01*
X161783141Y-117765143D01*
X161813000Y-117615028D01*
X161813000Y-117461972D01*
X161783141Y-117311857D01*
X161724569Y-117170452D01*
X161639536Y-117043191D01*
X161531309Y-116934964D01*
X161404048Y-116849931D01*
X161262643Y-116791359D01*
X161112528Y-116761500D01*
X160959472Y-116761500D01*
X160809357Y-116791359D01*
X160779824Y-116803592D01*
X160779824Y-115720000D01*
X160772545Y-115646095D01*
X160750988Y-115575030D01*
X160721574Y-115520000D01*
X160750988Y-115464970D01*
X160772545Y-115393905D01*
X160776376Y-115355000D01*
X162220176Y-115355000D01*
X162220176Y-117055000D01*
X162227455Y-117128905D01*
X162249012Y-117199970D01*
X162284019Y-117265463D01*
X162331131Y-117322869D01*
X162388537Y-117369981D01*
X162454030Y-117404988D01*
X162525095Y-117426545D01*
X162599000Y-117433824D01*
X164299000Y-117433824D01*
X164372905Y-117426545D01*
X164443970Y-117404988D01*
X164509463Y-117369981D01*
X164566869Y-117322869D01*
X164613981Y-117265463D01*
X164648988Y-117199970D01*
X164670545Y-117128905D01*
X164677824Y-117055000D01*
X164677824Y-115355000D01*
X164670545Y-115281095D01*
X164648988Y-115210030D01*
X164613981Y-115144537D01*
X164566869Y-115087131D01*
X164509463Y-115040019D01*
X164443970Y-115005012D01*
X164372905Y-114983455D01*
X164299000Y-114976176D01*
X162599000Y-114976176D01*
X162525095Y-114983455D01*
X162454030Y-115005012D01*
X162388537Y-115040019D01*
X162331131Y-115087131D01*
X162284019Y-115144537D01*
X162249012Y-115210030D01*
X162227455Y-115281095D01*
X162220176Y-115355000D01*
X160776376Y-115355000D01*
X160779824Y-115320000D01*
X160779824Y-114220000D01*
X160772545Y-114146095D01*
X160750988Y-114075030D01*
X160721574Y-114020000D01*
X160750988Y-113964970D01*
X160772545Y-113893905D01*
X160779824Y-113820000D01*
X160779824Y-113146113D01*
X161373543Y-112552395D01*
X161392684Y-112536686D01*
X161408392Y-112517546D01*
X161408400Y-112517538D01*
X161455417Y-112460248D01*
X161502030Y-112373039D01*
X161502031Y-112373038D01*
X161530736Y-112278411D01*
X161538000Y-112204655D01*
X161538000Y-112204645D01*
X161540427Y-112180002D01*
X161538000Y-112155359D01*
X161538000Y-110578845D01*
X161639536Y-110477309D01*
X161724569Y-110350048D01*
X161783141Y-110208643D01*
X161813000Y-110058528D01*
X161813000Y-109905472D01*
X161783141Y-109755357D01*
X161724569Y-109613952D01*
X161639536Y-109486691D01*
X161531309Y-109378464D01*
X161404048Y-109293431D01*
X161262643Y-109234859D01*
X161112528Y-109205000D01*
X160959472Y-109205000D01*
X160810526Y-109234626D01*
X160755494Y-109189463D01*
X160645180Y-109130498D01*
X160525482Y-109094188D01*
X160401000Y-109081928D01*
X159924750Y-109085000D01*
X159766000Y-109243750D01*
X159766000Y-110143000D01*
X159786000Y-110143000D01*
X159786000Y-110397000D01*
X159766000Y-110397000D01*
X159766000Y-110417000D01*
X159512000Y-110417000D01*
X159512000Y-110397000D01*
X159492000Y-110397000D01*
X159492000Y-110143000D01*
X159512000Y-110143000D01*
X159512000Y-109243750D01*
X159353250Y-109085000D01*
X159334364Y-109084878D01*
X159346072Y-108966000D01*
X159343000Y-108489750D01*
X159184250Y-108331000D01*
X158285000Y-108331000D01*
X158285000Y-108351000D01*
X158031000Y-108351000D01*
X158031000Y-108331000D01*
X158011000Y-108331000D01*
X158011000Y-108077000D01*
X158031000Y-108077000D01*
X158031000Y-108057000D01*
X158285000Y-108057000D01*
X158285000Y-108077000D01*
X159184250Y-108077000D01*
X159343000Y-107918250D01*
X159346072Y-107442000D01*
X159333812Y-107317518D01*
X159297502Y-107197820D01*
X159281830Y-107168500D01*
X160235155Y-107168500D01*
X160286691Y-107220036D01*
X160413952Y-107305069D01*
X160555357Y-107363641D01*
X160705472Y-107393500D01*
X160858528Y-107393500D01*
X161008643Y-107363641D01*
X161150048Y-107305069D01*
X161277309Y-107220036D01*
X161385536Y-107111809D01*
X161470569Y-106984548D01*
X161529141Y-106843143D01*
X161559000Y-106693028D01*
X161559000Y-106539972D01*
X161529141Y-106389857D01*
X161470569Y-106248452D01*
X161385536Y-106121191D01*
X161277309Y-106012964D01*
X161150048Y-105927931D01*
X161008643Y-105869359D01*
X160858528Y-105839500D01*
X160705472Y-105839500D01*
X160555357Y-105869359D01*
X160413952Y-105927931D01*
X160286691Y-106012964D01*
X160235155Y-106064500D01*
X158924609Y-106064500D01*
X159144038Y-105947214D01*
X159300048Y-105631653D01*
X157988000Y-104319605D01*
X156675952Y-105631653D01*
X156831962Y-105947214D01*
X157062336Y-106064500D01*
X153835845Y-106064500D01*
X153784309Y-106012964D01*
X153657048Y-105927931D01*
X153576719Y-105894658D01*
X153797093Y-105803376D01*
X154104518Y-105597961D01*
X154365961Y-105336518D01*
X154571376Y-105029093D01*
X154712868Y-104687501D01*
X154785000Y-104324868D01*
X154785000Y-104182824D01*
X155843098Y-104182824D01*
X155892666Y-104600451D01*
X156022757Y-105000383D01*
X156180786Y-105296038D01*
X156496347Y-105452048D01*
X157808395Y-104140000D01*
X158167605Y-104140000D01*
X159479653Y-105452048D01*
X159795214Y-105296038D01*
X159986020Y-104921255D01*
X160100044Y-104516449D01*
X160132902Y-104097176D01*
X160083334Y-103679549D01*
X159953243Y-103279617D01*
X159795214Y-102983962D01*
X159479653Y-102827952D01*
X158167605Y-104140000D01*
X157808395Y-104140000D01*
X156496347Y-102827952D01*
X156180786Y-102983962D01*
X155989980Y-103358745D01*
X155875956Y-103763551D01*
X155843098Y-104182824D01*
X154785000Y-104182824D01*
X154785000Y-103955132D01*
X154712868Y-103592499D01*
X154571376Y-103250907D01*
X154365961Y-102943482D01*
X154104518Y-102682039D01*
X154054095Y-102648347D01*
X156675952Y-102648347D01*
X157988000Y-103960395D01*
X159300048Y-102648347D01*
X159144038Y-102332786D01*
X158769255Y-102141980D01*
X158364449Y-102027956D01*
X157945176Y-101995098D01*
X157527549Y-102044666D01*
X157127617Y-102174757D01*
X156831962Y-102332786D01*
X156675952Y-102648347D01*
X154054095Y-102648347D01*
X153797093Y-102476624D01*
X153455501Y-102335132D01*
X153092868Y-102263000D01*
X152723132Y-102263000D01*
X152360499Y-102335132D01*
X152018907Y-102476624D01*
X151711482Y-102682039D01*
X151450039Y-102943482D01*
X151244624Y-103250907D01*
X151103132Y-103592499D01*
X151031000Y-103955132D01*
X151031000Y-104324868D01*
X151103132Y-104687501D01*
X151244624Y-105029093D01*
X151450039Y-105336518D01*
X151529521Y-105416000D01*
X150299103Y-105416000D01*
X150268652Y-105413001D01*
X150268642Y-105413001D01*
X150243999Y-105410574D01*
X150219356Y-105413001D01*
X149706824Y-105413001D01*
X149706824Y-102640000D01*
X149699545Y-102566095D01*
X149677988Y-102495030D01*
X149642981Y-102429537D01*
X149595869Y-102372131D01*
X149538463Y-102325019D01*
X149472970Y-102290012D01*
X149401905Y-102268455D01*
X149328000Y-102261176D01*
X146328000Y-102261176D01*
X146254095Y-102268455D01*
X146183030Y-102290012D01*
X146117537Y-102325019D01*
X146060131Y-102372131D01*
X146013019Y-102429537D01*
X145978012Y-102495030D01*
X145956455Y-102566095D01*
X145949176Y-102640000D01*
X145949176Y-105640000D01*
X145956455Y-105713905D01*
X145978012Y-105784970D01*
X146013019Y-105850463D01*
X146060131Y-105907869D01*
X146117537Y-105954981D01*
X146183030Y-105989988D01*
X146254095Y-106011545D01*
X146328000Y-106018824D01*
X147326238Y-106018824D01*
X144802462Y-108542602D01*
X144783316Y-108558315D01*
X144767603Y-108577461D01*
X144767600Y-108577464D01*
X144720583Y-108634754D01*
X144673969Y-108721963D01*
X144645264Y-108816590D01*
X144635572Y-108914999D01*
X144638000Y-108939652D01*
X144637999Y-111360039D01*
X144544134Y-111412702D01*
X144498643Y-111393859D01*
X144348528Y-111364000D01*
X144195472Y-111364000D01*
X144045357Y-111393859D01*
X143903952Y-111452431D01*
X143776691Y-111537464D01*
X143668464Y-111645691D01*
X143583431Y-111772952D01*
X143524859Y-111914357D01*
X143495000Y-112064472D01*
X140737000Y-112064472D01*
X140737000Y-101464377D01*
X140990000Y-101464377D01*
X140990000Y-101735623D01*
X141042917Y-102001656D01*
X141146718Y-102252254D01*
X141297414Y-102477787D01*
X141489213Y-102669586D01*
X141714746Y-102820282D01*
X141965344Y-102924083D01*
X142231377Y-102977000D01*
X142502623Y-102977000D01*
X142768656Y-102924083D01*
X143019254Y-102820282D01*
X143244787Y-102669586D01*
X143436586Y-102477787D01*
X143587282Y-102252254D01*
X143691083Y-102001656D01*
X143744000Y-101735623D01*
X143744000Y-101464377D01*
X143691083Y-101198344D01*
X143587282Y-100947746D01*
X143436586Y-100722213D01*
X143244787Y-100530414D01*
X143019254Y-100379718D01*
X142768656Y-100275917D01*
X142502623Y-100223000D01*
X142231377Y-100223000D01*
X141965344Y-100275917D01*
X141714746Y-100379718D01*
X141489213Y-100530414D01*
X141297414Y-100722213D01*
X141146718Y-100947746D01*
X141042917Y-101198344D01*
X140990000Y-101464377D01*
X140737000Y-101464377D01*
X140737000Y-98192000D01*
X165968000Y-98192000D01*
X165968001Y-159110000D01*
G36*
X147785000Y-108077000D02*
G01*
X147805000Y-108077000D01*
X147805000Y-108331000D01*
X147785000Y-108331000D01*
X147785000Y-109442250D01*
X147943750Y-109601000D01*
X148208000Y-109604072D01*
X148332482Y-109591812D01*
X148452180Y-109555502D01*
X148562494Y-109496537D01*
X148659185Y-109417185D01*
X148718570Y-109344824D01*
X149415037Y-109344824D01*
X149364691Y-109378464D01*
X149256464Y-109486691D01*
X149171431Y-109613952D01*
X149112859Y-109755357D01*
X149083000Y-109905472D01*
X149083000Y-110058528D01*
X149112859Y-110208643D01*
X149171431Y-110350048D01*
X149256464Y-110477309D01*
X149364691Y-110585536D01*
X149491952Y-110670569D01*
X149633357Y-110729141D01*
X149783472Y-110759000D01*
X149936528Y-110759000D01*
X150086643Y-110729141D01*
X150228048Y-110670569D01*
X150355309Y-110585536D01*
X150456845Y-110484000D01*
X156629155Y-110484000D01*
X156730691Y-110585536D01*
X156839097Y-110657970D01*
X153014963Y-114482105D01*
X152995817Y-114497818D01*
X152980104Y-114516964D01*
X152980101Y-114516967D01*
X152933084Y-114574257D01*
X152886470Y-114661466D01*
X152857765Y-114756093D01*
X152848073Y-114854502D01*
X152850501Y-114879155D01*
X152850500Y-116433655D01*
X152748964Y-116535191D01*
X152663931Y-116662452D01*
X152605359Y-116803857D01*
X152575500Y-116953972D01*
X152575500Y-117107028D01*
X152605359Y-117257143D01*
X152663931Y-117398548D01*
X152748964Y-117525809D01*
X152857191Y-117634036D01*
X152984452Y-117719069D01*
X153125857Y-117777641D01*
X153275972Y-117807500D01*
X153429028Y-117807500D01*
X153579143Y-117777641D01*
X153720548Y-117719069D01*
X153847809Y-117634036D01*
X153956036Y-117525809D01*
X154041069Y-117398548D01*
X154099641Y-117257143D01*
X154129500Y-117107028D01*
X154129500Y-116953972D01*
X154099641Y-116803857D01*
X154041069Y-116662452D01*
X153956036Y-116535191D01*
X153854500Y-116433655D01*
X153854500Y-115062436D01*
X158157937Y-110759000D01*
X158239637Y-110759000D01*
X158238928Y-110820000D01*
X158251188Y-110944482D01*
X158287498Y-111064180D01*
X158346463Y-111174494D01*
X158425815Y-111271185D01*
X158451792Y-111292504D01*
X158446962Y-111293969D01*
X158359753Y-111340583D01*
X158359751Y-111340584D01*
X158359752Y-111340584D01*
X158302462Y-111387600D01*
X158302454Y-111387608D01*
X158283314Y-111403316D01*
X158267605Y-111422457D01*
X154873203Y-114816861D01*
X154854052Y-114832578D01*
X154791319Y-114909017D01*
X154744705Y-114996227D01*
X154716000Y-115090854D01*
X154708736Y-115164610D01*
X154708736Y-115164619D01*
X154706309Y-115189262D01*
X154708736Y-115213905D01*
X154708737Y-115927398D01*
X154607200Y-116028935D01*
X154522167Y-116156196D01*
X154463595Y-116297601D01*
X154433736Y-116447716D01*
X154433736Y-116600772D01*
X154463595Y-116750887D01*
X154522167Y-116892292D01*
X154607200Y-117019553D01*
X154715427Y-117127780D01*
X154842688Y-117212813D01*
X154984093Y-117271385D01*
X155134208Y-117301244D01*
X155287264Y-117301244D01*
X155437379Y-117271385D01*
X155578784Y-117212813D01*
X155706045Y-117127780D01*
X155814272Y-117019553D01*
X155899305Y-116892292D01*
X155912001Y-116861642D01*
X155912000Y-117627354D01*
X154441857Y-119097499D01*
X154441846Y-119097508D01*
X151632000Y-121907356D01*
X151632000Y-115625105D01*
X151653000Y-115519528D01*
X151653000Y-115366472D01*
X151623141Y-115216357D01*
X151564569Y-115074952D01*
X151479536Y-114947691D01*
X151371309Y-114839464D01*
X151244048Y-114754431D01*
X151164467Y-114721467D01*
X153118538Y-112767397D01*
X153137684Y-112751684D01*
X153153397Y-112732538D01*
X153153400Y-112732535D01*
X153200417Y-112675246D01*
X153247031Y-112588037D01*
X153275736Y-112493410D01*
X153279801Y-112452131D01*
X153283000Y-112419653D01*
X153283000Y-112419646D01*
X153285427Y-112395000D01*
X153283000Y-112370355D01*
X153283000Y-111975845D01*
X153384536Y-111874309D01*
X153469569Y-111747048D01*
X153528141Y-111605643D01*
X153558000Y-111455528D01*
X153558000Y-111302472D01*
X153528141Y-111152357D01*
X153469569Y-111010952D01*
X153384536Y-110883691D01*
X153276309Y-110775464D01*
X153149048Y-110690431D01*
X153007643Y-110631859D01*
X152857528Y-110602000D01*
X152704472Y-110602000D01*
X152554357Y-110631859D01*
X152412952Y-110690431D01*
X152285691Y-110775464D01*
X152247600Y-110813555D01*
X152209509Y-110775464D01*
X152082248Y-110690431D01*
X151940843Y-110631859D01*
X151790728Y-110602000D01*
X151637672Y-110602000D01*
X151487557Y-110631859D01*
X151346152Y-110690431D01*
X151218891Y-110775464D01*
X151110664Y-110883691D01*
X151025631Y-111010952D01*
X150967059Y-111152357D01*
X150937200Y-111302472D01*
X150937200Y-111455528D01*
X150959313Y-111566700D01*
X150848643Y-111520859D01*
X150698528Y-111491000D01*
X150545472Y-111491000D01*
X150395357Y-111520859D01*
X150253952Y-111579431D01*
X150126691Y-111664464D01*
X150018464Y-111772691D01*
X149933431Y-111899952D01*
X149874859Y-112041357D01*
X149845000Y-112191472D01*
X149845000Y-112335065D01*
X149412066Y-112768000D01*
X147317824Y-112768000D01*
X147317824Y-112720000D01*
X147310545Y-112646095D01*
X147288988Y-112575030D01*
X147259574Y-112520000D01*
X147288988Y-112464970D01*
X147310545Y-112393905D01*
X147317824Y-112320000D01*
X147317824Y-111330570D01*
X147390185Y-111271185D01*
X147469537Y-111174494D01*
X147528502Y-111064180D01*
X147564812Y-110944482D01*
X147577072Y-110820000D01*
X147574000Y-110555750D01*
X147415250Y-110397000D01*
X146304000Y-110397000D01*
X146304000Y-110417000D01*
X146050000Y-110417000D01*
X146050000Y-110397000D01*
X146030000Y-110397000D01*
X146030000Y-110143000D01*
X146050000Y-110143000D01*
X146050000Y-109243750D01*
X145891250Y-109085000D01*
X145681286Y-109083646D01*
X146473000Y-108291933D01*
X146473000Y-108331002D01*
X146631748Y-108331002D01*
X146473000Y-108489750D01*
X146469928Y-108966000D01*
X146481636Y-109084878D01*
X146462750Y-109085000D01*
X146304000Y-109243750D01*
X146304000Y-110143000D01*
X147415250Y-110143000D01*
X147574000Y-109984250D01*
X147577072Y-109720000D01*
X147564812Y-109595518D01*
X147528502Y-109475820D01*
X147517679Y-109455571D01*
X147531000Y-109442250D01*
X147531000Y-108331000D01*
X147511000Y-108331000D01*
X147511000Y-108077000D01*
X147531000Y-108077000D01*
X147531000Y-108057000D01*
X147785000Y-108057000D01*
X147785000Y-108077000D01*
X147785000Y-108077000D01*
G37*
X147785000Y-108077000D02*
X147805000Y-108077000D01*
X147805000Y-108331000D01*
X147785000Y-108331000D01*
X147785000Y-109442250D01*
X147943750Y-109601000D01*
X148208000Y-109604072D01*
X148332482Y-109591812D01*
X148452180Y-109555502D01*
X148562494Y-109496537D01*
X148659185Y-109417185D01*
X148718570Y-109344824D01*
X149415037Y-109344824D01*
X149364691Y-109378464D01*
X149256464Y-109486691D01*
X149171431Y-109613952D01*
X149112859Y-109755357D01*
X149083000Y-109905472D01*
X149083000Y-110058528D01*
X149112859Y-110208643D01*
X149171431Y-110350048D01*
X149256464Y-110477309D01*
X149364691Y-110585536D01*
X149491952Y-110670569D01*
X149633357Y-110729141D01*
X149783472Y-110759000D01*
X149936528Y-110759000D01*
X150086643Y-110729141D01*
X150228048Y-110670569D01*
X150355309Y-110585536D01*
X150456845Y-110484000D01*
X156629155Y-110484000D01*
X156730691Y-110585536D01*
X156839097Y-110657970D01*
X153014963Y-114482105D01*
X152995817Y-114497818D01*
X152980104Y-114516964D01*
X152980101Y-114516967D01*
X152933084Y-114574257D01*
X152886470Y-114661466D01*
X152857765Y-114756093D01*
X152848073Y-114854502D01*
X152850501Y-114879155D01*
X152850500Y-116433655D01*
X152748964Y-116535191D01*
X152663931Y-116662452D01*
X152605359Y-116803857D01*
X152575500Y-116953972D01*
X152575500Y-117107028D01*
X152605359Y-117257143D01*
X152663931Y-117398548D01*
X152748964Y-117525809D01*
X152857191Y-117634036D01*
X152984452Y-117719069D01*
X153125857Y-117777641D01*
X153275972Y-117807500D01*
X153429028Y-117807500D01*
X153579143Y-117777641D01*
X153720548Y-117719069D01*
X153847809Y-117634036D01*
X153956036Y-117525809D01*
X154041069Y-117398548D01*
X154099641Y-117257143D01*
X154129500Y-117107028D01*
X154129500Y-116953972D01*
X154099641Y-116803857D01*
X154041069Y-116662452D01*
X153956036Y-116535191D01*
X153854500Y-116433655D01*
X153854500Y-115062436D01*
X158157937Y-110759000D01*
X158239637Y-110759000D01*
X158238928Y-110820000D01*
X158251188Y-110944482D01*
X158287498Y-111064180D01*
X158346463Y-111174494D01*
X158425815Y-111271185D01*
X158451792Y-111292504D01*
X158446962Y-111293969D01*
X158359753Y-111340583D01*
X158359751Y-111340584D01*
X158359752Y-111340584D01*
X158302462Y-111387600D01*
X158302454Y-111387608D01*
X158283314Y-111403316D01*
X158267605Y-111422457D01*
X154873203Y-114816861D01*
X154854052Y-114832578D01*
X154791319Y-114909017D01*
X154744705Y-114996227D01*
X154716000Y-115090854D01*
X154708736Y-115164610D01*
X154708736Y-115164619D01*
X154706309Y-115189262D01*
X154708736Y-115213905D01*
X154708737Y-115927398D01*
X154607200Y-116028935D01*
X154522167Y-116156196D01*
X154463595Y-116297601D01*
X154433736Y-116447716D01*
X154433736Y-116600772D01*
X154463595Y-116750887D01*
X154522167Y-116892292D01*
X154607200Y-117019553D01*
X154715427Y-117127780D01*
X154842688Y-117212813D01*
X154984093Y-117271385D01*
X155134208Y-117301244D01*
X155287264Y-117301244D01*
X155437379Y-117271385D01*
X155578784Y-117212813D01*
X155706045Y-117127780D01*
X155814272Y-117019553D01*
X155899305Y-116892292D01*
X155912001Y-116861642D01*
X155912000Y-117627354D01*
X154441857Y-119097499D01*
X154441846Y-119097508D01*
X151632000Y-121907356D01*
X151632000Y-115625105D01*
X151653000Y-115519528D01*
X151653000Y-115366472D01*
X151623141Y-115216357D01*
X151564569Y-115074952D01*
X151479536Y-114947691D01*
X151371309Y-114839464D01*
X151244048Y-114754431D01*
X151164467Y-114721467D01*
X153118538Y-112767397D01*
X153137684Y-112751684D01*
X153153397Y-112732538D01*
X153153400Y-112732535D01*
X153200417Y-112675246D01*
X153247031Y-112588037D01*
X153275736Y-112493410D01*
X153279801Y-112452131D01*
X153283000Y-112419653D01*
X153283000Y-112419646D01*
X153285427Y-112395000D01*
X153283000Y-112370355D01*
X153283000Y-111975845D01*
X153384536Y-111874309D01*
X153469569Y-111747048D01*
X153528141Y-111605643D01*
X153558000Y-111455528D01*
X153558000Y-111302472D01*
X153528141Y-111152357D01*
X153469569Y-111010952D01*
X153384536Y-110883691D01*
X153276309Y-110775464D01*
X153149048Y-110690431D01*
X153007643Y-110631859D01*
X152857528Y-110602000D01*
X152704472Y-110602000D01*
X152554357Y-110631859D01*
X152412952Y-110690431D01*
X152285691Y-110775464D01*
X152247600Y-110813555D01*
X152209509Y-110775464D01*
X152082248Y-110690431D01*
X151940843Y-110631859D01*
X151790728Y-110602000D01*
X151637672Y-110602000D01*
X151487557Y-110631859D01*
X151346152Y-110690431D01*
X151218891Y-110775464D01*
X151110664Y-110883691D01*
X151025631Y-111010952D01*
X150967059Y-111152357D01*
X150937200Y-111302472D01*
X150937200Y-111455528D01*
X150959313Y-111566700D01*
X150848643Y-111520859D01*
X150698528Y-111491000D01*
X150545472Y-111491000D01*
X150395357Y-111520859D01*
X150253952Y-111579431D01*
X150126691Y-111664464D01*
X150018464Y-111772691D01*
X149933431Y-111899952D01*
X149874859Y-112041357D01*
X149845000Y-112191472D01*
X149845000Y-112335065D01*
X149412066Y-112768000D01*
X147317824Y-112768000D01*
X147317824Y-112720000D01*
X147310545Y-112646095D01*
X147288988Y-112575030D01*
X147259574Y-112520000D01*
X147288988Y-112464970D01*
X147310545Y-112393905D01*
X147317824Y-112320000D01*
X147317824Y-111330570D01*
X147390185Y-111271185D01*
X147469537Y-111174494D01*
X147528502Y-111064180D01*
X147564812Y-110944482D01*
X147577072Y-110820000D01*
X147574000Y-110555750D01*
X147415250Y-110397000D01*
X146304000Y-110397000D01*
X146304000Y-110417000D01*
X146050000Y-110417000D01*
X146050000Y-110397000D01*
X146030000Y-110397000D01*
X146030000Y-110143000D01*
X146050000Y-110143000D01*
X146050000Y-109243750D01*
X145891250Y-109085000D01*
X145681286Y-109083646D01*
X146473000Y-108291933D01*
X146473000Y-108331002D01*
X146631748Y-108331002D01*
X146473000Y-108489750D01*
X146469928Y-108966000D01*
X146481636Y-109084878D01*
X146462750Y-109085000D01*
X146304000Y-109243750D01*
X146304000Y-110143000D01*
X147415250Y-110143000D01*
X147574000Y-109984250D01*
X147577072Y-109720000D01*
X147564812Y-109595518D01*
X147528502Y-109475820D01*
X147517679Y-109455571D01*
X147531000Y-109442250D01*
X147531000Y-108331000D01*
X147511000Y-108331000D01*
X147511000Y-108077000D01*
X147531000Y-108077000D01*
X147531000Y-108057000D01*
X147785000Y-108057000D01*
X147785000Y-108077000D01*
G36*
X150222345Y-106420000D02*
G01*
X150222354Y-106420000D01*
X150246997Y-106422427D01*
X150271640Y-106420000D01*
X152382566Y-106420000D01*
X152512000Y-106549434D01*
X152512000Y-106693028D01*
X152541859Y-106843143D01*
X152600431Y-106984548D01*
X152652968Y-107063176D01*
X151608000Y-107063176D01*
X151534095Y-107070455D01*
X151463030Y-107092012D01*
X151408000Y-107121426D01*
X151352970Y-107092012D01*
X151281905Y-107070455D01*
X151208000Y-107063176D01*
X150108000Y-107063176D01*
X150034095Y-107070455D01*
X149963030Y-107092012D01*
X149908000Y-107121426D01*
X149852970Y-107092012D01*
X149781905Y-107070455D01*
X149708000Y-107063176D01*
X148718570Y-107063176D01*
X148659185Y-106990815D01*
X148562494Y-106911463D01*
X148452180Y-106852498D01*
X148332482Y-106816188D01*
X148208000Y-106803928D01*
X147958100Y-106806833D01*
X148347933Y-106417001D01*
X150191894Y-106417001D01*
X150222345Y-106420000D01*
X150222345Y-106420000D01*
G37*
X150222345Y-106420000D02*
X150222354Y-106420000D01*
X150246997Y-106422427D01*
X150271640Y-106420000D01*
X152382566Y-106420000D01*
X152512000Y-106549434D01*
X152512000Y-106693028D01*
X152541859Y-106843143D01*
X152600431Y-106984548D01*
X152652968Y-107063176D01*
X151608000Y-107063176D01*
X151534095Y-107070455D01*
X151463030Y-107092012D01*
X151408000Y-107121426D01*
X151352970Y-107092012D01*
X151281905Y-107070455D01*
X151208000Y-107063176D01*
X150108000Y-107063176D01*
X150034095Y-107070455D01*
X149963030Y-107092012D01*
X149908000Y-107121426D01*
X149852970Y-107092012D01*
X149781905Y-107070455D01*
X149708000Y-107063176D01*
X148718570Y-107063176D01*
X148659185Y-106990815D01*
X148562494Y-106911463D01*
X148452180Y-106852498D01*
X148332482Y-106816188D01*
X148208000Y-106803928D01*
X147958100Y-106806833D01*
X148347933Y-106417001D01*
X150191894Y-106417001D01*
X150222345Y-106420000D01*
M02*
